[gd_scene load_steps=4 format=2]

[ext_resource path="res://blokoj/kosmosxipoj/resursoj/skif/gunsModul.tscn" type="PackedScene" id=1]
[ext_resource path="res://blokoj/kosmosxipoj/skriptoj/moduloj/modulo.gd" type="Script" id=2]

[sub_resource type="ConvexPolygonShape" id=1]
points = PoolVector3Array( 0.61472, -1.483, -1.48636, 0.61472, -1.483, -1.53348, 0.61472, -1.483, -1.89479, 0.61472, -1.45026, -1.48636, 0.61472, -1.45026, -1.89479, -0.636752, -1.42124, -1.9048, -0.636752, -1.44025, -1.92381, -1.04518, -1.44025, -1.92381, -1.04518, -1.42124, -1.9048, 0.636752, -1.42124, -1.47635, 0.636752, -1.44025, -1.45734, 1.04518, -1.44025, -1.45734, 1.04518, -1.42124, -1.47635, 1.04518, -1.42124, -1.9048, 1.04518, -1.44025, -1.92381, 0.636752, -1.44025, -1.92381, 0.636752, -1.42124, -1.9048, 1.05519, -1.45026, -1.45734, 1.05519, -1.483, -1.45734, 1.0742, -1.483, -1.47635, 1.0742, -1.45026, -1.47635, 1.0742, -1.45026, -1.9048, 1.0742, -1.483, -1.9048, 1.05519, -1.483, -1.92381, 1.05519, -1.45026, -1.92381, -0.626741, -1.45026, -1.45734, -0.626741, -1.483, -1.45734, -0.607731, -1.483, -1.47635, -0.607731, -1.45026, -1.47635, -0.607731, -1.45026, -1.9048, -0.607731, -1.483, -1.9048, -0.626741, -1.483, -1.92381, -0.626741, -1.45026, -1.92381, -1.05519, -1.42124, -1.89479, -1.0742, -1.44025, -1.89479, -1.0742, -1.44025, -1.48636, -1.05519, -1.42124, -1.48636, -1.05519, -1.45026, -1.92381, -1.05519, -1.483, -1.92381, -1.0742, -1.483, -1.9048, -1.0742, -1.45026, -1.9048, 0.636752, -1.42823, -1.48636, 0.636752, -1.42823, -1.89479, 1.04518, -1.42823, -1.89479, 1.04518, -1.42823, -1.48636, 0.636752, -1.45026, -1.91682, 0.636752, -1.483, -1.91682, 1.04518, -1.483, -1.91682, 1.04518, -1.45026, -1.91682, 0.626741, -1.45026, -1.92381, 0.626741, -1.483, -1.92381, 0.607731, -1.483, -1.9048, 0.607731, -1.45026, -1.9048, -1.04518, -1.42124, -1.47635, -1.04518, -1.44025, -1.45734, -0.636752, -1.44025, -1.45734, -0.636752, -1.42124, -1.47635, 1.07606, -1.45599, -1.45548, 1.03945, -1.41938, -1.45548, 1.07606, -1.41938, -1.49209, 1.06721, -1.45026, -1.89479, 1.06721, -1.483, -1.89479, 1.06721, -1.483, -1.48636, 1.06721, -1.45026, -1.48636, 0.626741, -1.42124, -1.89479, 0.607731, -1.44025, -1.89479, 0.607731, -1.44025, -1.48636, 0.626741, -1.42124, -1.48636, -0.61472, -1.483, -1.89479, -0.61472, -1.483, -1.5361, -0.61472, -1.483, -1.48636, -0.61472, -1.45026, -1.89479, -0.61472, -1.45026, -1.48636, -1.04518, -1.45026, -1.91682, -1.04518, -1.483, -1.91682, -0.636752, -1.483, -1.91682, -0.636752, -1.45026, -1.91682, -0.605871, -1.45599, -1.92567, -0.605871, -1.41938, -1.88906, -0.642482, -1.41938, -1.92567, 0.906842, 1.00995, -0.344254, 1.53721, 0.385051, -0.344254, 1.53721, 0.385052, -1.65575, 0.906842, 1.00995, -1.65575, -1.0742, -1.45026, -1.47635, -1.0742, -1.483, -1.47635, -1.05519, -1.483, -1.45734, -1.05519, -1.45026, -1.45734, -1.06721, -1.45026, -1.48636, -1.06721, -1.483, -1.48636, -1.06721, -1.483, -1.89479, -1.06721, -1.45026, -1.89479, -0.636752, -1.45026, -1.46433, -0.636752, -1.483, -1.46433, -1.04518, -1.483, -1.46433, -1.04518, -1.45026, -1.46433, 0.918811, 1.02203, -1.67275, 1.54918, 0.397125, -1.67275, 1.87441, 0.725204, -1.67275, 1.26512, 1.34705, -1.67275, 1.25314, 1.35928, -1.67275, 1.88631, 0.713061, -1.65575, 1.56125, 0.385156, -1.65575, 1.56125, 0.385156, -0.344254, 1.88631, 0.713061, -0.344254, -1.53721, 0.385052, -1.65575, -1.53721, 0.385051, -0.344254, -0.906843, 1.00995, -0.344254, -0.906843, 1.00995, -1.65575, 0.906738, 1.03399, -0.344254, 0.906738, 1.03399, -1.65575, 1.24124, 1.37142, -1.65575, 1.24124, 1.37142, -0.344254, 1.87441, 0.725204, -0.327255, 1.54918, 0.397124, -0.327255, 0.918811, 1.02203, -0.327254, 1.25314, 1.35928, -0.327254, -1.87441, 0.725204, -1.67275, -1.54918, 0.397125, -1.67275, -0.918811, 1.02203, -1.67275, -1.25314, 1.35928, -1.67275, -1.56125, 0.385156, -0.344254, -1.56125, 0.385156, -1.65575, -1.88631, 0.713061, -1.65575, -1.88631, 0.713061, -0.344254, 1.14609, 1.49282, -0.0143524, 1.9881, 0.633463, -0.0142161, 1.91018, 0.712991, -0.306959, 1.9881, 0.633463, -1.97699, 1.91018, 0.712991, -1.68975, 1.14629, 1.49261, -1.977, 1.24621, 1.39063, -0.306827, 1.26994, 1.36641, -1.68975, -1.24124, 1.37142, -1.65575, -0.906738, 1.03399, -1.65575, -0.906738, 1.03399, -0.344254, -1.24124, 1.37142, -0.344254, -0.918811, 1.02203, -0.327254, -1.54918, 0.397124, -0.327255, -1.87441, 0.725204, -0.327255, -1.25314, 1.35928, -0.327254, 1.12205, 1.5, -0.0108079, 1.12205, 1.5, -1.97681, -1.12205, 1.5, -1.97681, -1.12205, 1.5, -0.0108079, -1.12325, -1.5, -1.97576, 1.12205, -1.5, -1.9758, 1.06922, -1.5, -1.93382, 1.08421, -1.5, -1.91883, 1.08421, -1.5, -1.46232, -1.08019, -1.5, -1.92661, -1.07283, -1.5, -1.93382, -0.61271, -1.5, -1.93382, -0.59772, -1.5, -1.91883, 0.61271, -1.5, -1.93382, 0.59772, -1.5, -1.91883, 0.59772, -1.5, -1.53352, -0.59772, -1.5, -1.53607, 1.24603, 1.39083, -1.68975, 1.26994, 1.36641, -1.68975, 1.14629, 1.49261, -1.977, 1.14609, 1.49282, -0.0143524, -1.90478, 0.718507, -1.69324, -1.99351, 0.627948, -1.97331, -1.9933, 0.62816, -0.0141039, -1.90498, 0.718295, -0.306959, -1.14605, 1.49286, -0.0142357, -1.24621, 1.39063, -0.306827, -1.9881, -0.633463, -1.97681, -1.15095, -1.48786, -1.97681, -1.15095, -1.48786, -0.0108081, -1.9881, -0.633463, -0.010808, 1.9881, -0.633463, -0.010808, 1.15095, -1.48786, -0.010808, 1.15095, -1.48786, -1.97681, 1.9881, -0.633463, -1.97681, -1.14624, 1.49267, -1.97345, -1.24603, 1.39083, -1.69311, -1.24621, 1.39063, -0.306827, -1.14605, 1.49286, -0.0142357, -2, 0.604321, -1.97681, -2, -0.60432, -1.97681, -2, -0.60432, -0.010808, -2, 0.604321, -0.010808, 1.08421, -1.5, -1.46232, 1.12205, -1.5, -1.9758, 1.12205, -1.5, -0.010808, -1.1232, -1.5, -0.0108081, -1.12325, -1.5, -1.97576, -1.08035, -1.5, -1.45845, -0.59772, -1.5, -1.46232, -0.59772, -1.5, -1.53607, 0.59772, -1.5, -1.53352, 0.59772, -1.5, -1.46232, -0.61271, -1.5, -1.44733, 1.06922, -1.5, -1.44733, 0.61271, -1.5, -1.44733, -1.06922, -1.5, -1.44733, 2, 0.60432, -0.0108079, 2, -0.60432, -0.010808, 2, -0.60432, -1.97681, 2, 0.60432, -1.97681, 1.983, -0.61438, -1.99381, 1.13191, -1.483, -1.99381, -1.13191, -1.483, -1.99381, -1.983, -0.61438, -1.99381, 1.983, 0.61438, -1.99381, -1.983, 0.61438, -1.99381, 1.13191, 1.483, -1.99381, -1.13191, 1.483, -1.99381, -1.983, -0.61438, 0.00619203, -1.13191, -1.483, 0.00619191, 1.13191, -1.483, 0.00619203, 1.983, -0.61438, 0.00619203, 1.983, 0.61438, 0.00619209, -1.983, 0.61438, 0.00619203, 1.13191, 1.483, 0.00619209, -1.13191, 1.483, 0.00619209, -0.605871, -1.41938, -1.49209, -0.605871, -1.45599, -1.45548, -0.642482, -1.41938, -1.45548, -1.07606, -1.45599, -1.92567, -1.03945, -1.41938, -1.92567, -1.07606, -1.41938, -1.88906, 1.05519, -1.42124, -1.48636, 1.0742, -1.44025, -1.48636, 1.0742, -1.44025, -1.89479, 1.05519, -1.42124, -1.89479, 1.04518, -1.45026, -1.46433, 1.04518, -1.483, -1.46433, 0.636752, -1.483, -1.46433, 0.636752, -1.45026, -1.46433, -1.07606, -1.45599, -1.45548, -1.07606, -1.41938, -1.49209, -1.03945, -1.41938, -1.45548, -0.626741, -1.42124, -1.48636, -0.607731, -1.44025, -1.48636, -0.607731, -1.44025, -1.89479, -0.626741, -1.42124, -1.89479, -1.04518, -1.42823, -1.48636, -1.04518, -1.42823, -1.89479, -0.636752, -1.42823, -1.89479, -0.636752, -1.42823, -1.48636, 0.605871, -1.41938, -1.49209, 0.642482, -1.41938, -1.45548, 0.605871, -1.45599, -1.45548, 1.07606, -1.45599, -1.92567, 1.07606, -1.41938, -1.88906, 1.03945, -1.41938, -1.92567, 0.605871, -1.45599, -1.92567, 0.642482, -1.41938, -1.92567, 0.605871, -1.41938, -1.88906, 0.620565, -1.45026, -1.46629, 0.607731, -1.45026, -1.47635, 0.604465, -1.43377, -1.48188, 0.619904, -1.43341, -1.46775, 0.620262, -1.41797, -1.48188, 0.619904, -1.43341, -1.46775, 0.605871, -1.41938, -1.49209, 0.636752, -1.42124, -1.47635, 0.636752, -1.43407, -1.46629, 0.619904, -1.43341, -1.46775, 0.620262, -1.41797, -1.48188, 0.636752, -1.43407, -1.46629, 0.636752, -1.45026, -1.46433, 0.619904, -1.43341, -1.46775, 0.636752, -1.44025, -1.45734, 0.620262, -1.44578, -1.45407, 0.619904, -1.43165, -1.46951, 0.636752, -1.43019, -1.47017, 0.620262, -1.44578, -1.45407, 0.605871, -1.45599, -1.45548, 0.604465, -1.44578, -1.46987, 0.619904, -1.43165, -1.46951, 0.619904, -1.43165, -1.46951, 0.604465, -1.44578, -1.46987, 0.607731, -1.44025, -1.48636, 0.620565, -1.43019, -1.48636, 0.619904, -1.43165, -1.46951, 0.636752, -1.42823, -1.48636, 0.632275, -1.43377, -1.45407, 0.626741, -1.45026, -1.45734, 0.616684, -1.45026, -1.47017, 0.618143, -1.43341, -1.46951, 0.616684, -1.45026, -1.47017, 0.61472, -1.45026, -1.48636, 0.616684, -1.43407, -1.48636, 0.618143, -1.43341, -1.46951, 0.618143, -1.43341, -1.46951, 0.616684, -1.43407, -1.48636, 0.626741, -1.42124, -1.48636, 0.632275, -1.41797, -1.46987, 0.618143, -1.43341, -1.46951, 0.632275, -1.41797, -1.46987, 0.642482, -1.41938, -1.45548, 0.607731, -1.44025, -1.89479, 0.604465, -1.44578, -1.91128, 0.619904, -1.43165, -1.91164, 0.620565, -1.43019, -1.89479, 0.605871, -1.45599, -1.92567, 0.620262, -1.44578, -1.92708, 0.636752, -1.44025, -1.92381, 0.636752, -1.43019, -1.91098, 0.636752, -1.42823, -1.89479, 0.619904, -1.43341, -1.9134, 0.636752, -1.43407, -1.91486, 0.636752, -1.42124, -1.9048, 0.620262, -1.41797, -1.89927, 0.604465, -1.43377, -1.89927, 0.619904, -1.43341, -1.9134, 0.605871, -1.41938, -1.88906, 0.604465, -1.43377, -1.89927, 0.607731, -1.45026, -1.9048, 0.620565, -1.45026, -1.91486, 0.619904, -1.43341, -1.9134, 0.636752, -1.45026, -1.91682, 0.636752, -1.43407, -1.91486, 0.619904, -1.43341, -1.9134, 0.626741, -1.42124, -1.89479, 0.616684, -1.43407, -1.89479, 0.618144, -1.43341, -1.91164, 0.632275, -1.41797, -1.91128, 0.616684, -1.43407, -1.89479, 0.61472, -1.45026, -1.89479, 0.616684, -1.45026, -1.91098, 0.618144, -1.43341, -1.91164, 0.626741, -1.45026, -1.92381, 0.632275, -1.43377, -1.92708, 0.618144, -1.43341, -1.91164, 0.618144, -1.43341, -1.91164, 0.632275, -1.43377, -1.92708, 0.642482, -1.41938, -1.92567, 1.0742, -1.44025, -1.48636, 1.07747, -1.44578, -1.46987, 1.06203, -1.43165, -1.46951, 1.06137, -1.43019, -1.48636, 1.07747, -1.44578, -1.46987, 1.07606, -1.45599, -1.45548, 1.06167, -1.44578, -1.45407, 1.04518, -1.44025, -1.45734, 1.04518, -1.43019, -1.47017, 1.04518, -1.42823, -1.48636, 1.06203, -1.43341, -1.46775, 1.04518, -1.43407, -1.46629, 1.04518, -1.42124, -1.47635, 1.06167, -1.41797, -1.48188, 1.07747, -1.43377, -1.48188, 1.06203, -1.43341, -1.46775, 1.07606, -1.41938, -1.49209, 1.07747, -1.43377, -1.48188, 1.0742, -1.45026, -1.47635, 1.06137, -1.45026, -1.46629, 1.06203, -1.43341, -1.46775, 1.04518, -1.45026, -1.46433, 1.04518, -1.43407, -1.46629, 1.06203, -1.43341, -1.46775, 1.05519, -1.42124, -1.48636, 1.06525, -1.43407, -1.48636, 1.06379, -1.43341, -1.46951, 1.04966, -1.41797, -1.46987, 1.06721, -1.45026, -1.48636, 1.06525, -1.45026, -1.47017, 1.05519, -1.45026, -1.45734, 1.04966, -1.43377, -1.45407, 1.04966, -1.43377, -1.45407, 1.03945, -1.41938, -1.45548, 1.04518, -1.44025, -1.92381, 1.06167, -1.44578, -1.92708, 1.06203, -1.43165, -1.91164, 1.04518, -1.43019, -1.91098, 1.07606, -1.45599, -1.92567, 1.07747, -1.44578, -1.91128, 1.07747, -1.44578, -1.91128, 1.0742, -1.44025, -1.89479, 1.06137, -1.43019, -1.89479, 1.04518, -1.42823, -1.89479, 1.06379, -1.43341, -1.91164, 1.06525, -1.43407, -1.89479, 1.05519, -1.42124, -1.89479, 1.04966, -1.41797, -1.91128, 1.04966, -1.43377, -1.92708, 1.03945, -1.41938, -1.92567, 1.04966, -1.43377, -1.92708, 1.05519, -1.45026, -1.92381, 1.06525, -1.45026, -1.91098, 1.06721, -1.45026, -1.89479, 1.04518, -1.42124, -1.9048, 1.04518, -1.43407, -1.91486, 1.06203, -1.43341, -1.9134, 1.06167, -1.41797, -1.89927, 1.04518, -1.43407, -1.91486, 1.04518, -1.45026, -1.91682, 1.06137, -1.45026, -1.91486, 1.06203, -1.43341, -1.9134, 1.0742, -1.45026, -1.9048, 1.07747, -1.43377, -1.89927, 1.06203, -1.43341, -1.9134, 1.06203, -1.43341, -1.9134, 1.07747, -1.43377, -1.89927, 1.07606, -1.41938, -1.88906, -0.619904, -1.43341, -1.46775, -0.636752, -1.43407, -1.46629, -0.636752, -1.42124, -1.47635, -0.620262, -1.41797, -1.48188, -0.604465, -1.43377, -1.48188, -0.619904, -1.43341, -1.46775, -0.605871, -1.41938, -1.49209, -0.604465, -1.43377, -1.48188, -0.607731, -1.45026, -1.47635, -0.620565, -1.45026, -1.46629, -0.619904, -1.43341, -1.46775, -0.620565, -1.45026, -1.46629, -0.636752, -1.45026, -1.46433, -0.636752, -1.43407, -1.46629, -0.619904, -1.43341, -1.46775, -0.616684, -1.45026, -1.47017, -0.626741, -1.45026, -1.45734, -0.632275, -1.43377, -1.45407, -0.618144, -1.43341, -1.46951, -0.632275, -1.41797, -1.46987, -0.618144, -1.43341, -1.46951, -0.632275, -1.43377, -1.45407, -0.642482, -1.41938, -1.45548, -0.626741, -1.42124, -1.48636, -0.616684, -1.43407, -1.48636, -0.618144, -1.43341, -1.46951, -0.632275, -1.41797, -1.46987, -0.616684, -1.43407, -1.48636, -0.61472, -1.45026, -1.48636, -0.618144, -1.43341, -1.46951, -0.619904, -1.43165, -1.46951, -0.620262, -1.44578, -1.45407, -0.636752, -1.44025, -1.45734, -0.636752, -1.43019, -1.47017, -0.620565, -1.43019, -1.48636, -0.619904, -1.43165, -1.46951, -0.636752, -1.43019, -1.47017, -0.636752, -1.42823, -1.48636, -0.607731, -1.44025, -1.48636, -0.604465, -1.44578, -1.46987, -0.619904, -1.43165, -1.46951, -0.620565, -1.43019, -1.48636, -0.604465, -1.44578, -1.46987, -0.605871, -1.45599, -1.45548, -0.619904, -1.43165, -1.46951, -0.636752, -1.44025, -1.92381, -0.620262, -1.44578, -1.92708, -0.619904, -1.43165, -1.91164, -0.636752, -1.43019, -1.91098, -0.620262, -1.44578, -1.92708, -0.605871, -1.45599, -1.92567, -0.604465, -1.44578, -1.91128, -0.619904, -1.43165, -1.91164, -0.619904, -1.43165, -1.91164, -0.604465, -1.44578, -1.91128, -0.607731, -1.44025, -1.89479, -0.620565, -1.43019, -1.89479, -0.636752, -1.43019, -1.91098, -0.619904, -1.43165, -1.91164, -0.620565, -1.43019, -1.89479, -0.636752, -1.42823, -1.89479, -0.618144, -1.43341, -1.91164, -0.616684, -1.43407, -1.89479, -0.626741, -1.42124, -1.89479, -0.632275, -1.41797, -1.91128, -0.632275, -1.43377, -1.92708, -0.618144, -1.43341, -1.91164, -0.632275, -1.41797, -1.91128, -0.642482, -1.41938, -1.92567, -0.632275, -1.43377, -1.92708, -0.626741, -1.45026, -1.92381, -0.616684, -1.45026, -1.91098, -0.618144, -1.43341, -1.91164, -0.61472, -1.45026, -1.89479, -0.618144, -1.43341, -1.91164, -0.636752, -1.42124, -1.9048, -0.636752, -1.43407, -1.91486, -0.619904, -1.43341, -1.9134, -0.620262, -1.41797, -1.89927, -0.636752, -1.45026, -1.91682, -0.620565, -1.45026, -1.91486, -0.619904, -1.43341, -1.9134, -0.607731, -1.45026, -1.9048, -0.604465, -1.43377, -1.89927, -0.619904, -1.43341, -1.9134, -0.620262, -1.41797, -1.89927, -0.619904, -1.43341, -1.9134, -0.604465, -1.43377, -1.89927, -0.605871, -1.41938, -1.88906, -1.04518, -1.44025, -1.45734, -1.06167, -1.44578, -1.45407, -1.06203, -1.43165, -1.46951, -1.04518, -1.43019, -1.47017, -1.06167, -1.44578, -1.45407, -1.07606, -1.45599, -1.45548, -1.07747, -1.44578, -1.46987, -1.06203, -1.43165, -1.46951, -1.06203, -1.43165, -1.46951, -1.07747, -1.44578, -1.46987, -1.0742, -1.44025, -1.48636, -1.06137, -1.43019, -1.48636, -1.04518, -1.43019, -1.47017, -1.06203, -1.43165, -1.46951, -1.04518, -1.42823, -1.48636, -1.06379, -1.43341, -1.46951, -1.06525, -1.43407, -1.48636, -1.05519, -1.42124, -1.48636, -1.04966, -1.41797, -1.46987, -1.04966, -1.43377, -1.45407, -1.03945, -1.41938, -1.45548, -1.04966, -1.43377, -1.45407, -1.05519, -1.45026, -1.45734, -1.06525, -1.45026, -1.47017, -1.06721, -1.45026, -1.48636, -1.04518, -1.42124, -1.47635, -1.04518, -1.43407, -1.46629, -1.06203, -1.43341, -1.46775, -1.06167, -1.41797, -1.48188, -1.04518, -1.45026, -1.46433, -1.06137, -1.45026, -1.46629, -1.06203, -1.43341, -1.46775, -1.0742, -1.45026, -1.47635, -1.07747, -1.43377, -1.48188, -1.06203, -1.43341, -1.46775, -1.06167, -1.41797, -1.48188, -1.06203, -1.43341, -1.46775, -1.07747, -1.43377, -1.48188, -1.07606, -1.41938, -1.49209, -1.0742, -1.44025, -1.89479, -1.07747, -1.44578, -1.91128, -1.06203, -1.43165, -1.91164, -1.06137, -1.43019, -1.89479, -1.07747, -1.44578, -1.91128, -1.07606, -1.45599, -1.92567, -1.06167, -1.44578, -1.92708, -1.06203, -1.43165, -1.91164, -1.06203, -1.43165, -1.91164, -1.06167, -1.44578, -1.92708, -1.04518, -1.44025, -1.92381, -1.04518, -1.43019, -1.91098, -1.06203, -1.43165, -1.91164, -1.04518, -1.43019, -1.91098, -1.04518, -1.42823, -1.89479, -1.06203, -1.43341, -1.9134, -1.04518, -1.43407, -1.91486, -1.04518, -1.42124, -1.9048, -1.06167, -1.41797, -1.89927, -1.07747, -1.43377, -1.89927, -1.06203, -1.43341, -1.9134, -1.06167, -1.41797, -1.89927, -1.07606, -1.41938, -1.88906, -1.07747, -1.43377, -1.89927, -1.0742, -1.45026, -1.9048, -1.06137, -1.45026, -1.91486, -1.06203, -1.43341, -1.9134, -1.04518, -1.45026, -1.91682, -1.06203, -1.43341, -1.9134, -1.05519, -1.42124, -1.89479, -1.06525, -1.43407, -1.89479, -1.06379, -1.43341, -1.91164, -1.04966, -1.41797, -1.91128, -1.06721, -1.45026, -1.89479, -1.06525, -1.45026, -1.91098, -1.05519, -1.45026, -1.92381, -1.04966, -1.43377, -1.92708, -1.04966, -1.43377, -1.92708, -1.03945, -1.41938, -1.92567, 0.90871, 1.03204, -0.330031, 0.900689, 1.02195, -0.33144, 0.898696, 1.02194, -0.344254, 0.906738, 1.03399, -0.344254, 0.918811, 1.02203, -0.327254, 0.908797, 1.01193, -0.330031, 0.900689, 1.02195, -0.33144, 0.90871, 1.03204, -0.330031, 0.908797, 1.01193, -0.330031, 0.906842, 1.00995, -0.344254, 0.898696, 1.02194, -0.344254, 0.900689, 1.02195, -0.33144, 0.898696, 1.02194, -1.65575, 0.906842, 1.00995, -1.65575, 0.908797, 1.01193, -1.66997, 0.900689, 1.02195, -1.66856, 0.900689, 1.02195, -1.66856, 0.908797, 1.01193, -1.66997, 0.918811, 1.02203, -1.67275, 0.90871, 1.03204, -1.66997, 0.898696, 1.02194, -1.65575, 0.900689, 1.02195, -1.66856, 0.906738, 1.03399, -1.65575, 1.54926, 0.379003, -0.33144, 1.54927, 0.37701, -0.344254, 1.53721, 0.385051, -0.344254, 1.53917, 0.387024, -0.330031, 1.55928, 0.387111, -0.330031, 1.53917, 0.387024, -0.330031, 1.54918, 0.397124, -0.327255, 1.56125, 0.385156, -0.344254, 1.55928, 0.387111, -0.330031, 1.53721, 0.385052, -1.65575, 1.54927, 0.37701, -1.65575, 1.54926, 0.379003, -1.66856, 1.53917, 0.387024, -1.66997, 1.56125, 0.385156, -1.65575, 1.55928, 0.387111, -1.66997, 1.53917, 0.387024, -1.66997, 1.54918, 0.397125, -1.67275, -0.898697, 1.02194, -0.344254, -0.900689, 1.02195, -0.33144, -0.90871, 1.03204, -0.330031, -0.906738, 1.03399, -0.344254, -0.898697, 1.02194, -0.344254, -0.906843, 1.00995, -0.344254, -0.908798, 1.01193, -0.330031, -0.900689, 1.02195, -0.33144, -0.900689, 1.02195, -0.33144, -0.908798, 1.01193, -0.330031, -0.918811, 1.02203, -0.327254, -0.90871, 1.03204, -0.330031, -0.908798, 1.01193, -1.66997, -0.906843, 1.00995, -1.65575, -0.898696, 1.02194, -1.65575, -0.900689, 1.02195, -1.66856, -0.90871, 1.03204, -1.66997, -0.900689, 1.02195, -1.66856, -0.898696, 1.02194, -1.65575, -0.906738, 1.03399, -1.65575, -0.918811, 1.02203, -1.67275, -0.908798, 1.01193, -1.66997, -0.900689, 1.02195, -1.66856, -0.90871, 1.03204, -1.66997, -1.53721, 0.385051, -0.344254, -1.54927, 0.37701, -0.344254, -1.54926, 0.379003, -0.33144, -1.53917, 0.387024, -0.330031, -1.56125, 0.385156, -0.344254, -1.55928, 0.387111, -0.330031, -1.53917, 0.387024, -0.330031, -1.55928, 0.387111, -0.330031, -1.54918, 0.397124, -0.327255, -1.54926, 0.379003, -1.66856, -1.54927, 0.37701, -1.65575, -1.53721, 0.385052, -1.65575, -1.53917, 0.387024, -1.66997, -1.55928, 0.387111, -1.66997, -1.53917, 0.387024, -1.66997, -1.54918, 0.397125, -1.67275, -1.56125, 0.385156, -1.65575, -1.55928, 0.387111, -1.66997, 1.1375, 1.49821, 0.00200543, 1.1429, 1.492, 0.00287032, 1.14609, 1.49282, -0.0143524, 1.13747, 1.49881, -0.0129432, 1.12698, 1.49722, 0.00341531, 1.13747, 1.49881, -0.0129432, 1.12205, 1.5, -0.0108079, 1.12698, 1.49722, 0.00341531, 1.13191, 1.483, 0.00619209, 1.1429, 1.492, 0.00287032, 1.99004, 0.627422, 0.00289048, 1.99777, 0.620284, 0.00209444, 1.99806, 0.620527, -0.012512, 1.9881, 0.633463, -0.0142161, 1.983, 0.61438, 0.00619209, 1.99722, 0.60935, 0.00341531, 1.99722, 0.60935, 0.00341531, 2, 0.60432, -0.0108079, 1.99768, -0.620375, 0.0024677, 1.99806, -0.620527, -0.010808, 2, -0.60432, -0.010808, 1.99722, -0.60935, 0.00341525, 1.983, -0.61438, 0.00619203, 1.98964, -0.627927, 0.00341525, 1.99722, -0.60935, 0.00341525, 1.98964, -0.627927, 0.00341525, 1.9881, -0.633463, -0.010808, 1.13755, -1.49641, 0.00200624, 1.13891, -1.49965, -0.010808, 1.15095, -1.48786, -0.010808, 1.14715, -1.48543, 0.00341525, 1.12298, -1.49559, 0.00341525, 1.14715, -1.48543, 0.00341525, 1.13191, -1.483, 0.00619203, 1.12205, -1.5, -0.010808, -1.13769, -1.49641, 0.00200612, -1.13948, -1.49965, -0.0108081, -1.1232, -1.5, -0.0108081, -1.12355, -1.49559, 0.00341513, -1.14677, -1.48543, 0.00341513, -1.12355, -1.49559, 0.00341513, -1.13191, -1.483, 0.00619191, -1.15095, -1.48786, -0.0108081, -1.13948, -1.49965, -0.0108081, -1.14677, -1.48543, 0.00341513, -1.99806, -0.620527, -0.0108081, -1.9881, -0.633463, -0.010808, -1.98964, -0.627927, 0.00341524, -1.99768, -0.620375, 0.00246768, -1.98964, -0.627927, 0.00341524, -1.983, -0.61438, 0.00619203, -1.99722, -0.60935, 0.00341525, -2, -0.60432, -0.010808, -1.99806, -0.620527, -0.0108081, -1.99722, -0.60935, 0.00341525, -1.99888, 0.619703, -0.0128192, -2, 0.604321, -0.010808, -1.99722, 0.60935, 0.00341525, -1.99828, 0.619771, 0.0020325, -1.99722, 0.60935, 0.00341525, -1.983, 0.61438, 0.00619203, -1.9923, 0.625111, 0.00290813, -1.9923, 0.625111, 0.00290813, -1.9933, 0.62816, -0.0141039, -1.14289, 1.49202, 0.00288809, -1.13191, 1.483, 0.00619209, -1.12698, 1.49722, 0.00341531, -1.1375, 1.49821, 0.00201991, -1.13746, 1.49881, -0.0128765, -1.12698, 1.49722, 0.00341531, -1.12205, 1.5, -0.0108079, -1.14605, 1.49286, -0.0142357, -1.14289, 1.49202, 0.00288809, -1.13746, 1.49881, -0.0128765, 1.1432, 1.4918, -1.99106, 1.13191, 1.483, -1.99381, 1.12698, 1.49722, -1.99103, 1.13755, 1.49816, -1.99011, 1.1375, 1.49877, -1.97692, 1.12698, 1.49722, -1.99103, 1.12205, 1.5, -1.97681, 1.14629, 1.49261, -1.977, 1.1375, 1.49877, -1.97692, 1.99806, 0.620527, -1.9769, 1.99768, 0.62038, -1.9901, 1.98961, 0.627955, -1.99106, 1.9881, 0.633463, -1.97699, 2, 0.60432, -1.97681, 1.99722, 0.60935, -1.99103, 1.983, 0.61438, -1.99381, 1.98961, 0.627955, -1.99106, 2, -0.60432, -1.97681, 1.99806, -0.620527, -1.97681, 1.99768, -0.620375, -1.99008, 1.99722, -0.60935, -1.99103, 1.9881, -0.633463, -1.97681, 1.98964, -0.627927, -1.99103, 1.983, -0.61438, -1.99381, 1.99722, -0.60935, -1.99103, 1.15095, -1.48786, -1.97681, 1.13822, -1.49802, -1.97631, 1.1381, -1.49764, -1.98997, 1.14552, -1.48943, -1.99103, 1.13822, -1.49802, -1.97631, 1.12205, -1.5, -1.9758, 1.12718, -1.4972, -1.99088, 1.14552, -1.48943, -1.99103, 1.13191, -1.483, -1.99381, -1.12776, -1.4972, -1.99087, -1.12325, -1.5, -1.97576, -1.13841, -1.49802, -1.97627, -1.13823, -1.49764, -1.98997, -1.15095, -1.48786, -1.97681, -1.14552, -1.48943, -1.99103, -1.12776, -1.4972, -1.99087, -1.14552, -1.48943, -1.99103, -1.13191, -1.483, -1.99381, -1.98964, -0.627927, -1.99103, -1.9881, -0.633463, -1.97681, -1.99806, -0.620527, -1.97681, -1.99768, -0.620375, -1.99008, -2, -0.60432, -1.97681, -1.99722, -0.60935, -1.99103, -1.983, -0.61438, -1.99381, -1.99722, 0.60935, -1.99103, -2, 0.604321, -1.97681, -1.99892, 0.61967, -1.97466, -1.9983, 0.619749, -1.98962, -1.9924, 0.62501, -1.99049, -1.99892, 0.61967, -1.97466, -1.99351, 0.627948, -1.97331, -1.983, 0.61438, -1.99381, -1.99722, 0.60935, -1.99103, -1.9924, 0.62501, -1.99049, -1.14297, 1.49193, -1.99051, -1.14624, 1.49267, -1.97345, -1.13749, 1.49878, -1.9748, -1.13752, 1.4982, -1.98965, -1.12698, 1.49722, -1.99103, -1.12205, 1.5, -1.97681, -1.12698, 1.49722, -1.99103, -1.13191, 1.483, -1.99381, -1.14297, 1.49193, -1.99051, 1.88443, 0.715103, -1.66997, 1.88631, 0.713061, -1.65575, 1.89827, 0.721178, -1.67275, 1.89568, 0.722489, -1.67275, 1.89827, 0.721178, -1.67275, 1.91018, 0.712991, -1.68975, 1.89638, 0.723103, -1.67552, 1.89568, 0.722489, -1.67275, 1.87441, 0.725204, -1.67275, 1.89568, 0.722489, -1.67275, 1.89638, 0.723103, -1.67552, 1.89539, 0.722785, -0.326893, 1.88443, 0.715103, -0.330031, 1.87441, 0.725204, -0.327255, 1.89491, 0.724536, -0.323962, 1.89491, 0.724536, -0.323962, 1.91018, 0.712991, -0.306959, 1.89827, 0.721179, -0.325606, 1.89539, 0.722785, -0.326893, 1.89827, 0.721179, -0.325606, 1.88631, 0.713061, -0.344254, 1.88443, 0.715103, -0.330031, 1.89539, 0.722785, -0.326893, 1.25493, 1.37769, -0.323944, 1.25314, 1.35928, -0.327254, 1.24312, 1.36938, -0.330031, 1.25136, 1.38003, -0.325622, 1.25136, 1.38003, -0.325622, 1.24312, 1.36938, -0.330031, 1.24124, 1.37142, -0.344254, 1.25009, 1.38277, -0.319341, 1.24621, 1.39063, -0.306827, 1.25493, 1.37769, -0.323944, 1.25009, 1.38277, -0.319341, 1.25136, 1.38003, -0.325622, 1.24124, 1.37142, -1.65575, 1.24312, 1.36938, -1.66997, 1.2511, 1.3803, -1.67384, 1.25006, 1.38281, -1.67815, 1.25314, 1.35928, -1.67275, 1.25367, 1.37906, -1.67552, 1.2511, 1.3803, -1.67384, 1.2511, 1.3803, -1.67384, 1.25367, 1.37906, -1.67552, 1.25006, 1.38281, -1.67815, 1.24603, 1.39083, -1.68975, -1.25134, 1.38005, -1.67432, -1.24312, 1.36938, -1.66997, -1.24124, 1.37142, -1.65575, -1.25006, 1.3828, -1.68035, -1.24603, 1.39083, -1.69311, -1.25483, 1.37779, -1.67605, -1.25006, 1.3828, -1.68035, -1.25134, 1.38005, -1.67432, -1.25483, 1.37779, -1.67605, -1.25314, 1.35928, -1.67275, -1.25134, 1.38005, -1.67432, -1.24124, 1.37142, -0.344254, -1.24312, 1.36938, -0.330031, -1.25137, 1.38003, -0.325622, -1.25009, 1.38277, -0.319341, -1.24312, 1.36938, -0.330031, -1.25314, 1.35928, -0.327254, -1.25493, 1.37769, -0.323944, -1.25137, 1.38003, -0.325622, -1.25137, 1.38003, -0.325622, -1.25493, 1.37769, -0.323944, -1.25009, 1.38277, -0.319341, -1.24621, 1.39063, -0.306827, -1.89749, 0.722061, -1.68159, -1.88631, 0.713061, -1.65575, -1.89486, 0.723334, -1.67456, -1.88443, 0.715103, -1.66997, -1.89486, 0.723334, -1.67456, -1.87441, 0.725204, -1.67275, -1.89246, 0.727017, -1.67607, -1.89246, 0.727017, -1.67607, -1.90478, 0.718507, -1.69324, -1.89749, 0.722061, -1.68159, -1.89486, 0.723334, -1.67456, -1.87441, 0.725204, -0.327255, -1.88443, 0.715103, -0.330031, -1.89489, 0.723301, -0.325525, -1.89262, 0.726865, -0.323965, -1.88631, 0.713061, -0.344254, -1.89489, 0.723301, -0.325525, -1.89752, 0.722025, -0.318847, -1.89752, 0.722025, -0.318847, -1.90498, 0.718295, -0.306959, -1.89262, 0.726865, -0.323965, -1.89489, 0.723301, -0.325525, 1.06692, -1.49628, -1.46948, 1.06566, -1.49722, -1.46387, 1.05519, -1.483, -1.45734, 1.06525, -1.483, -1.47017, 1.06721, -1.483, -1.48636, 1.06999, -1.49722, -1.47434, 1.06692, -1.49628, -1.46948, 1.06999, -1.49722, -1.47434, 1.08421, -1.5, -1.46232, 1.06566, -1.49722, -1.46387, 1.06692, -1.49628, -1.46948, 1.06692, -1.49628, -1.91167, 1.06999, -1.49722, -1.90681, 1.06721, -1.483, -1.89479, 1.06525, -1.483, -1.91098, 1.05519, -1.483, -1.92381, 1.06566, -1.49722, -1.91727, 1.06692, -1.49628, -1.91167, 1.06566, -1.49722, -1.91727, 1.08421, -1.5, -1.91883, 1.06999, -1.49722, -1.90681, 1.06692, -1.49628, -1.91167, 1.04518, -1.483, -1.91682, 1.0572, -1.49722, -1.9196, 1.06206, -1.49628, -1.91653, 1.06137, -1.483, -1.91486, 1.0572, -1.49722, -1.9196, 1.06922, -1.5, -1.93382, 1.06767, -1.49722, -1.91526, 1.06206, -1.49628, -1.91653, 1.06206, -1.49628, -1.91653, 1.06767, -1.49722, -1.91526, 1.0742, -1.483, -1.9048, 1.0742, -1.483, -1.47635, 1.06767, -1.49722, -1.46588, 1.06206, -1.49628, -1.46462, 1.06137, -1.483, -1.46629, 1.06767, -1.49722, -1.46588, 1.06922, -1.5, -1.44733, 1.0572, -1.49722, -1.46155, 1.06206, -1.49628, -1.46462, 1.06206, -1.49628, -1.46462, 1.0572, -1.49722, -1.46155, 1.04518, -1.483, -1.46433, 0.619874, -1.49628, -1.91653, 0.624731, -1.49722, -1.9196, 0.636752, -1.483, -1.91682, 0.620565, -1.483, -1.91486, 0.607731, -1.483, -1.9048, 0.614268, -1.49722, -1.91526, 0.619874, -1.49628, -1.91653, 0.614268, -1.49722, -1.91526, 0.61271, -1.5, -1.93382, 0.624731, -1.49722, -1.9196, 0.619874, -1.49628, -1.91653, 0.619874, -1.49628, -1.46462, 0.614268, -1.49722, -1.46588, 0.607731, -1.483, -1.47635, 0.620565, -1.483, -1.46629, 0.636752, -1.483, -1.46433, 0.624731, -1.49722, -1.46155, 0.619874, -1.49628, -1.46462, 0.624731, -1.49722, -1.46155, 0.61271, -1.5, -1.44733, 0.614268, -1.49722, -1.46588, 0.619874, -1.49628, -1.46462, 0.626741, -1.483, -1.45734, 0.616278, -1.49722, -1.46387, 0.615016, -1.49628, -1.46948, 0.616684, -1.483, -1.47017, 0.616278, -1.49722, -1.46387, 0.59772, -1.5, -1.46232, 0.611944, -1.49722, -1.47434, 0.615016, -1.49628, -1.46948, 0.615016, -1.49628, -1.46948, 0.611944, -1.49722, -1.47434, 0.61472, -1.483, -1.48636, 0.616684, -1.483, -1.47017, 0.61472, -1.483, -1.89479, 0.611944, -1.49722, -1.90681, 0.615016, -1.49628, -1.91167, 0.616684, -1.483, -1.91098, 0.611944, -1.49722, -1.90681, 0.59772, -1.5, -1.91883, 0.616278, -1.49722, -1.91727, 0.615016, -1.49628, -1.91167, 0.615016, -1.49628, -1.91167, 0.616278, -1.49722, -1.91727, 0.626741, -1.483, -1.92381, -0.636752, -1.483, -1.91682, -0.624731, -1.49722, -1.9196, -0.619874, -1.49628, -1.91653, -0.620565, -1.483, -1.91486, -0.624731, -1.49722, -1.9196, -0.61271, -1.5, -1.93382, -0.614268, -1.49722, -1.91526, -0.619874, -1.49628, -1.91653, -0.619874, -1.49628, -1.91653, -0.614268, -1.49722, -1.91526, -0.607731, -1.483, -1.9048, -0.607731, -1.483, -1.47635, -0.614268, -1.49722, -1.46588, -0.619874, -1.49628, -1.46462, -0.620565, -1.483, -1.46629, -0.614268, -1.49722, -1.46588, -0.61271, -1.5, -1.44733, -0.624731, -1.49722, -1.46155, -0.619874, -1.49628, -1.46462, -0.619874, -1.49628, -1.46462, -0.624731, -1.49722, -1.46155, -0.636752, -1.483, -1.46433, -0.620565, -1.483, -1.46629, -0.626741, -1.483, -1.92381, -0.616278, -1.49722, -1.91727, -0.615016, -1.49628, -1.91167, -0.616684, -1.483, -1.91098, -0.616278, -1.49722, -1.91727, -0.59772, -1.5, -1.91883, -0.611944, -1.49722, -1.90681, -0.615016, -1.49628, -1.91167, -0.615016, -1.49628, -1.91167, -0.611944, -1.49722, -1.90681, -0.61472, -1.483, -1.89479, -0.615016, -1.49628, -1.46948, -0.616278, -1.49722, -1.46387, -0.626741, -1.483, -1.45734, -0.616684, -1.483, -1.47017, -0.61472, -1.483, -1.48636, -0.611944, -1.49722, -1.47434, -0.615016, -1.49628, -1.46948, -0.611944, -1.49722, -1.47434, -0.59772, -1.5, -1.46232, -0.616278, -1.49722, -1.46387, -0.615016, -1.49628, -1.46948, -1.06273, -1.49628, -1.91625, -1.05901, -1.49722, -1.9196, -1.04518, -1.483, -1.91682, -1.06137, -1.483, -1.91486, -1.0742, -1.483, -1.9048, -1.06959, -1.49718, -1.9139, -1.06273, -1.49628, -1.91625, -1.06959, -1.49718, -1.9139, -1.07283, -1.5, -1.93382, -1.05901, -1.49722, -1.9196, -1.06273, -1.49628, -1.91625, -1.06721, -1.483, -1.89479, -1.06939, -1.49725, -1.9136, -1.06623, -1.49628, -1.91363, -1.06525, -1.483, -1.91098, -1.06939, -1.49725, -1.9136, -1.08019, -1.5, -1.92661, -1.06244, -1.49717, -1.92107, -1.06623, -1.49628, -1.91363, -1.06623, -1.49628, -1.91363, -1.06244, -1.49717, -1.92107, -1.05519, -1.483, -1.92381, -1.04518, -1.483, -1.46433, -1.0572, -1.49722, -1.46155, -1.06206, -1.49628, -1.46462, -1.06137, -1.483, -1.46629, -1.0572, -1.49722, -1.46155, -1.06922, -1.5, -1.44733, -1.06767, -1.49722, -1.46588, -1.06206, -1.49628, -1.46462, -1.06206, -1.49628, -1.46462, -1.06767, -1.49722, -1.46588, -1.0742, -1.483, -1.47635, -1.05519, -1.483, -1.45734, -1.06372, -1.49722, -1.46194, -1.06649, -1.49628, -1.46829, -1.06525, -1.483, -1.47017, -1.06372, -1.49722, -1.46194, -1.08035, -1.5, -1.45845, -1.06942, -1.49725, -1.46996, -1.06649, -1.49628, -1.46829, -1.06649, -1.49628, -1.46829, -1.06942, -1.49725, -1.46996, -1.06721, -1.483, -1.48636, 1.07747, -1.44578, -1.46987, 1.07747, -1.44578, -1.91128, -1.07747, -1.44578, -1.46987, -1.07747, -1.44578, -1.91128, -0.616684, -1.43407, -1.48636, -1.55928, 0.387111, -1.66997, 1.1429, 1.492, 0.00287032, 1.14609, 1.49282, -0.0143524, 1.99722, -0.60935, 0.00341525, 1.14715, -1.48543, 0.00341525, -1.12355, -1.49559, 0.00341513, -1.14677, -1.48543, 0.00341513, -1.99722, -0.60935, 0.00341525, 1.14552, -1.48943, -1.99103, -1.12325, -1.5, -1.97576, -1.12776, -1.4972, -1.99087, -1.14552, -1.48943, -1.99103, -1.99722, 0.60935, -1.99103, -1.9924, 0.62501, -1.99049, 1.14629, 1.49261, -1.977, -1.14605, 1.49286, -0.0142357, 1.12205, -1.5, -1.9758, 1.26994, 1.36641, -1.68975, 1.27408, 1.35822, -1.67552, 1.27408, 1.35822, -1.67552, 1.26512, 1.34705, -1.67275, 1.27408, 1.35822, -1.67552, 1.27408, 1.35822, -1.67552, 1.26994, 1.36641, -1.68975, -1.89246, 0.727017, -1.67607, -1.24621, 1.39063, -0.306827, -1.25493, 1.37769, -0.323944, 1.08421, -1.5, -1.46232, 0.61472, -1.483, -1.53348, 0.611943, -1.49722, -1.53349, 0.611943, -1.49722, -1.53349, 0.59772, -1.5, -1.53352, 0.59772, -1.5, -1.53352, -0.611944, -1.49722, -1.5361, -0.59772, -1.5, -1.53607, -0.61472, -1.483, -1.5361, -0.611944, -1.49722, -1.5361, -0.59772, -1.5, -1.53607, 0.607731, -1.45026, -1.47635, 0.607731, -1.483, -1.47635, 0.626741, -1.483, -1.45734, 0.626741, -1.45026, -1.45734 )

[node name="guns" type="CollisionShape"]
shape = SubResource( 1 )
script = ExtResource( 2 )

[node name="gunsModul" parent="." instance=ExtResource( 1 )]
