[gd_resource type="DynamicFont" load_steps=2 format=2]

[ext_resource path="res://kerno/menuo/resursoj/fonts/Roboto-Regular.ttf" type="DynamicFontData" id=1]

[resource]
resource_local_to_scene = true
size = 14
use_filter = true
extra_spacing_char = 2
font_data = ExtResource( 1 )
