[gd_scene load_steps=3 format=2]

[ext_resource path="res://blokoj/asteroidoj/resursoj/ast_2_cr.glb" type="PackedScene" id=1]

[sub_resource type="ConcavePolygonShape" id=1]
data = PoolVector3Array( 0.7346, 12.4477, -13.1594, 0.2496, 14.8375, -8.2925, -2.957, 11.5049, -10.7616, -2.957, 11.5049, -10.7616, 0.2496, 14.8375, -8.2925, -5.9076, 10.9576, -8.8927, 6.5169, 12.4594, -10.5396, 9.0758, 12.488, -10.1968, 4.8189, 14.9481, -5.3871, 3.4291, 13.3251, -12.2157, 4.8189, 14.9481, -5.3871, 0.2496, 14.8375, -8.2925, 4.8189, 14.9481, -5.3871, 9.0758, 12.488, -10.1968, 10.0682, 13.7772, -2.7958, 4.8189, 14.9481, -5.3871, 10.0682, 13.7772, -2.7958, 8.7023, 14.154, -0.1158, 1.463, 13.5411, -1.2743, 4.8189, 14.9481, -5.3871, 5.4194, 15.734, 3.1388, -3.2298, 13.5906, 3.3381, 1.463, 13.5411, -1.2743, 2.0989, 15.9789, 6.2941, -5.457, 14.5478, 1.2914, -1.6901, 15.205, -4.652, -3.2298, 13.5906, 3.3381, 8.7023, 14.154, -0.1158, 10.0682, 13.7772, -2.7958, 10.8166, 10.0364, 1.009, 5.4194, 15.734, 3.1388, 8.7023, 14.154, -0.1158, 9.9763, 13.3683, 3.6792, -6.0299, 11.7711, 6.5251, 2.0989, 15.9789, 6.2941, -0.5845, 13.1902, 10.7753, 7.2832, 12.8919, 6.6116, 9.9763, 13.3683, 3.6792, 10.7816, 11.0917, 5.5469, -0.5845, 13.1902, 10.7753, 3.5027, 15.1544, 7.6532, 2.5328, 11.3983, 11.3562, -6.9515, 10.194, 10.3597, -6.0299, 11.7711, 6.5251, -4.2708, 9.5205, 13.5764, -6.0299, 11.7711, 6.5251, -0.5845, 13.1902, 10.7753, -4.2708, 9.5205, 13.5764, 5.8773, 9.4003, -12.8417, 11.7474, 10.0779, -10.3007, 9.0758, 12.488, -10.1968, 5.8773, 9.4003, -12.8417, 6.5169, 12.4594, -10.5396, 3.5289, 10.9065, -13.8607, -3.7398, 8.0429, -14.1, 0.7346, 12.4477, -13.1594, -2.957, 11.5049, -10.7616, -5.9076, 10.9576, -8.8927, -5.457, 14.5478, 1.2914, -7.3447, 12.6414, 0.6349, -7.3447, 12.6414, 0.6349, -5.457, 14.5478, 1.2914, -6.0299, 11.7711, 6.5251, -5.457, 14.5478, 1.2914, -3.2298, 13.5906, 3.3381, -6.0299, 11.7711, 6.5251, -6.9515, 10.194, 10.3597, -4.2708, 9.5205, 13.5764, -7.8978, 7.3462, 11.9124, -4.2708, 9.5205, 13.5764, -0.5845, 13.1902, 10.7753, -2.5682, 7.2817, 14.2511, -2.5682, 7.2817, 14.2511, -0.5845, 13.1902, 10.7753, 2.5328, 11.3983, 11.3562, 2.5328, 11.3983, 11.3562, 7.2832, 12.8919, 6.6116, 5.6215, 7.4735, 10.1914, 10.8166, 10.0364, 1.009, 13.5118, 9.0104, -1.1549, 12.4168, 8.2345, 3.011, 10.4029, -6.1134, 8.3139, 5.4155, -4.6926, 14.305, 10.3499, -2.1297, 10.1064, 10.3499, -2.1297, 10.1064, 5.4155, -4.6926, 14.305, 7.6424, -0.5157, 13.3341, 11.7245, -0.1494, 7.9794, 7.4295, 2.9859, 12.1208, 8.2435, 4.3015, 9.5036, 12.5154, 5.0073, 4.9041, 8.6934, 8.2217, 8.3081, 10.8114, 8.1199, 6.3888, 11.7245, -0.1494, 7.9794, 7.6424, -0.5157, 13.3341, 7.4295, 2.9859, 12.1208, 8.2435, 4.3015, 9.5036, 3.3039, 5.7142, 13.0657, 5.6215, 7.4735, 10.1914, 7.6424, -0.5157, 13.3341, 3.6534, -2.8178, 15.8074, 2.0156, 1.7459, 16.0406, 2.6978, -8.8971, 12.5343, -4.0546, -10.7892, 6.7995, -2.005, -5.6821, 15.4725, 3.6534, -2.8178, 15.8074, 0.4561, -5.2306, 16.0144, -1.6757, -2.4615, 16.6051, 3.6534, -2.8178, 15.8074, -1.6757, -2.4615, 16.6051, 2.0156, 1.7459, 16.0406, 2.0156, 1.7459, 16.0406, -1.7649, 2.4583, 15.5033, 3.3039, 5.7142, 13.0657, 0.4561, -5.2306, 16.0144, -2.005, -5.6821, 15.4725, -1.6757, -2.4615, 16.6051, -2.5682, 7.2817, 14.2511, -1.7649, 2.4583, 15.5033, -4.0611, 3.7309, 15.0019, -2.005, -5.6821, 15.4725, -4.1257, -6.1716, 12.1869, -5.5926, -0.4847, 13.3923, -1.7649, 2.4583, 15.5033, -1.6757, -2.4615, 16.6051, -5.5926, -0.4847, 13.3923, -4.0611, 3.7309, 15.0019, -1.7649, 2.4583, 15.5033, -5.5926, -0.4847, 13.3923, 13.5669, 0.362, 4.9193, 11.7245, -0.1494, 7.9794, 8.2435, 4.3015, 9.5036, 12.4168, 8.2345, 3.011, 10.8114, 8.1199, 6.3888, 10.7816, 11.0917, 5.5469, 5.6215, 7.4735, 10.1914, 3.3039, 5.7142, 13.0657, 2.5328, 11.3983, 11.3562, -2.5682, 7.2817, 14.2511, -4.0611, 3.7309, 15.0019, -4.2708, 9.5205, 13.5764, -5.5926, -0.4847, 13.3923, -9.8581, 2.5279, 10.0242, -7.8978, 7.3462, 11.9124, -4.0611, 3.7309, 15.0019, -5.5926, -0.4847, 13.3923, -7.8978, 7.3462, 11.9124, -5.5926, -0.4847, 13.3923, -7.905, -1.8742, 11.3578, -9.8581, 2.5279, 10.0242, -4.1257, -6.1716, 12.1869, -7.7128, -8.2097, 7.4314, -11.3237, -5.1049, 3.725, -4.0546, -10.7892, 6.7995, -7.7128, -8.2097, 7.4314, -4.1257, -6.1716, 12.1869, -9.8581, 2.5279, 10.0242, -11.744, -0.1264, 5.5091, -11.427, 4.8531, 6.5173, -11.744, -0.1264, 5.5091, -10.5635, 3.6807, 1.355, -11.427, 4.8531, 6.5173, -11.744, -0.1264, 5.5091, -13.1029, -1.3533, -0.6974, -10.5635, 3.6807, 1.355, -11.427, 4.8531, 6.5173, -10.7367, 7.7039, 0.8138, -10.6672, 8.3405, 4.9395, -10.6672, 8.3405, 4.9395, -10.7367, 7.7039, 0.8138, -7.3447, 12.6414, 0.6349, -12.9418, -5.1571, -4.7084, -12.4751, -2.8971, -8.3809, -14.0693, 0.1497, -3.1741, -12.9418, -5.1571, -4.7084, -10.5663, -4.6974, -8.5066, -12.4751, -2.8971, -8.3809, -14.0693, 0.1497, -3.1741, -12.4751, -2.8971, -8.3809, -11.8687, 1.6381, -8.5136, -12.8903, 3.1612, -5.6287, -8.5885, 5.4624, -10.7293, -10.2895, 7.2306, -6.8152, -12.8903, 3.1612, -5.6287, -11.8687, 1.6381, -8.5136, -8.5885, 5.4624, -10.7293, -11.1503, -8.5883, -4.7511, -7.8666, -6.8802, -9.5451, -10.5663, -4.6974, -8.5066, -10.5663, -4.6974, -8.5066, -7.8666, -6.8802, -9.5451, -8.2751, -1.8958, -10.6732, -11.8687, 1.6381, -8.5136, -7.1687, 4.7869, -11.8459, -8.5885, 5.4624, -10.7293, -7.905, -1.8742, 11.3578, -11.744, -0.1264, 5.5091, -9.8581, 2.5279, 10.0242, -7.8978, 7.3462, 11.9124, -10.6672, 8.3405, 4.9395, -6.9515, 10.194, 10.3597, -6.9515, 10.194, 10.3597, -10.6672, 8.3405, 4.9395, -6.0299, 11.7711, 6.5251, -8.5885, 5.4624, -10.7293, -7.1687, 4.7869, -11.8459, -5.8657, 7.2983, -11.9129, -8.2751, -1.8958, -10.6732, -5.9066, -3.3285, -12.2158, -5.4923, -0.1213, -13.4285, -6.2022, -10.3968, -5.8263, -6.4884, -7.6806, -10.3787, -7.8666, -6.8802, -9.5451, -9.2503, -10.284, -4.0031, -6.2022, -10.3968, -5.8263, -7.8666, -6.8802, -9.5451, -11.3237, -5.1049, 3.725, -7.7128, -8.2097, 7.4314, -8.7245, -9.376, 2.2661, -6.4884, -7.6806, -10.3787, -6.2022, -10.3968, -5.8263, -1.8582, -12.0437, -8.1183, 3.7597, -12.1994, -4.0729, 1.1006, -11.8592, -8.8728, 0.896, -12.8624, -3.7052, -1.8582, -12.0437, -8.1183, -6.2022, -10.3968, -5.8263, -1.4097, -12.5917, -4.4373, 0.896, -12.8624, -3.7052, -1.8582, -12.0437, -8.1183, -1.4097, -12.5917, -4.4373, -1.4097, -12.5917, -4.4373, -6.2022, -10.3968, -5.8263, -9.2503, -10.284, -4.0031, 0.896, -12.8624, -3.7052, -1.4097, -12.5917, -4.4373, -3.2751, -11.3853, -1.5127, 3.7597, -12.1994, -4.0729, 0.896, -12.8624, -3.7052, 3.1014, -11.5515, 3.4795, 10.306, -8.9814, -3.9613, 3.7597, -12.1994, -4.0729, 6.3649, -11.2934, 3.2739, 0.896, -12.8624, -3.7052, -3.2751, -11.3853, -1.5127, -0.5952, -10.5369, 0.2602, -0.5952, -10.5369, 0.2602, -3.2751, -11.3853, -1.5127, -4.3487, -10.9726, 3.2642, -4.3487, -10.9726, 3.2642, -9.2503, -10.284, -4.0031, -4.0546, -10.7892, 6.7995, 0.6408, -11.4988, 6.2648, -4.3487, -10.9726, 3.2642, -4.0546, -10.7892, 6.7995, 3.1014, -11.5515, 3.4795, -4.3487, -10.9726, 3.2642, 0.6408, -11.4988, 6.2648, 3.1014, -11.5515, 3.4795, 0.6408, -11.4988, 6.2648, 6.3649, -11.2934, 3.2739, -4.0546, -10.7892, 6.7995, -8.7245, -9.376, 2.2661, -7.7128, -8.2097, 7.4314, 0.6408, -11.4988, 6.2648, 2.6978, -8.8971, 12.5343, 6.3649, -11.2934, 3.2739, -3.8404, -8.7837, -10.3248, -6.4884, -7.6806, -10.3787, -1.8582, -12.0437, -8.1183, 6.9163, -8.7128, -7.929, 3.806, -10.4742, -9.8806, 3.7597, -12.1994, -4.0729, 3.5027, 15.1544, 7.6532, 5.4194, 15.734, 3.1388, 7.2832, 12.8919, 6.6116, 2.0989, 15.9789, 6.2941, 5.4194, 15.734, 3.1388, 3.5027, 15.1544, 7.6532, 6.3649, -11.2934, 3.2739, 2.6978, -8.8971, 12.5343, 9.186, -8.7988, 6.6451, -9.2503, -10.284, -4.0031, -11.1503, -8.5883, -4.7511, -8.7245, -9.376, 2.2661, 12.6984, -4.5116, -6.7237, 6.9163, -8.7128, -7.929, 10.306, -8.9814, -3.9613, 12.6984, -4.5116, -6.7237, 10.306, -8.9814, -3.9613, 14.1602, -4.1661, -5.3444, 10.306, -8.9814, -3.9613, 12.4707, -7.9909, -1.8345, 14.1602, -4.1661, -5.3444, 12.6984, -4.5116, -6.7237, 14.1602, -4.1661, -5.3444, 14.4786, -1.0671, -8.0035, 12.018, 1.8435, -10.1227, 15.1632, 2.1404, -7.1599, 11.9305, 7.5132, -11.3643, 11.9305, 7.5132, -11.3643, 15.1632, 2.1404, -7.1599, 14.036, 8.5921, -7.1433, 14.1602, -4.1661, -5.3444, 14.4471, -5.5743, -0.8979, 15.1632, 2.1404, -7.1599, 12.4707, -7.9909, -1.8345, 10.6845, -7.5837, 2.9043, 14.4471, -5.5743, -0.8979, 15.8627, -1.7971, 0.4955, 14.8501, 5.4279, 2.5451, 15.6279, 6.0672, -1.9107, 15.1632, 2.1404, -7.1599, 15.8627, -1.7971, 0.4955, 15.6279, 6.0672, -1.9107, 10.6845, -7.5837, 2.9043, 12.079, -4.0319, 6.6689, 13.2293, -4.6382, 2.7884, 15.8627, -1.7971, 0.4955, 13.2293, -4.6382, 2.7884, 13.5669, 0.362, 4.9193, 9.9513, -2.4452, -9.0377, 6.9163, -8.7128, -7.929, 12.6984, -4.5116, -6.7237, 9.9513, -2.4452, -9.0377, 12.6984, -4.5116, -6.7237, 12.018, 1.8435, -10.1227, 11.9305, 7.5132, -11.3643, 14.036, 8.5921, -7.1433, 11.7474, 10.0779, -10.3007, 14.036, 8.5921, -7.1433, 15.6279, 6.0672, -1.9107, 13.3752, 10.8659, -3.0128, 13.5118, 9.0104, -1.1549, 14.8501, 5.4279, 2.5451, 12.4168, 8.2345, 3.011, 14.8501, 5.4279, 2.5451, 12.5154, 5.0073, 4.9041, 12.4168, 8.2345, 3.011, 15.8627, -1.7971, 0.4955, 13.5669, 0.362, 4.9193, 14.8501, 5.4279, 2.5451, 14.8501, 5.4279, 2.5451, 13.5669, 0.362, 4.9193, 12.5154, 5.0073, 4.9041, 10.6845, -7.5837, 2.9043, 10.4029, -6.1134, 8.3139, 12.079, -4.0319, 6.6689, 10.6845, -7.5837, 2.9043, 9.186, -8.7988, 6.6451, 10.4029, -6.1134, 8.3139, 10.306, -8.9814, -3.9613, 10.6845, -7.5837, 2.9043, 12.4707, -7.9909, -1.8345, -5.9066, -3.3285, -12.2158, -2.0744, -4.2658, -12.4968, -5.4923, -0.1213, -13.4285, -5.2436, 2.6045, -13.2765, 0.0579, 1.2819, -13.8574, -4.1645, 5.2747, -14.19, -3.7398, 8.0429, -14.1, -4.1645, 5.2747, -14.19, 0.5231, 6.5259, -14.2897, 0.0579, 1.2819, -13.8574, 0.5814, -3.1296, -12.8305, 4.6715, -0.9065, -11.9393, 0.0579, 1.2819, -13.8574, 3.0453, 2.8215, -11.929, 0.5231, 6.5259, -14.2897, 3.0453, 2.8215, -11.929, 0.0579, 1.2819, -13.8574, 4.6715, -0.9065, -11.9393, 6.1995, -6.2001, -11.3727, 2.7339, -8.1822, -11.5402, 6.9163, -8.7128, -7.929, 2.7339, -8.1822, -11.5402, 3.806, -10.4742, -9.8806, 6.9163, -8.7128, -7.929, 4.6715, -0.9065, -11.9393, 2.7339, -8.1822, -11.5402, 6.1995, -6.2001, -11.3727, 3.0453, 2.8215, -11.929, 4.6715, -0.9065, -11.9393, 8.0886, 2.6082, -12.2628, 4.0569, 6.1665, -13.2299, 3.0453, 2.8215, -11.929, 8.0886, 2.6082, -12.2628, -6.4884, -7.6806, -10.3787, -3.8404, -8.7837, -10.3248, -5.9066, -3.3285, -12.2158, -3.7398, 8.0429, -14.1, -5.8657, 7.2983, -11.9129, -4.1645, 5.2747, -14.19, -5.8657, 7.2983, -11.9129, -7.1687, 4.7869, -11.8459, -4.1645, 5.2747, -14.19, 0.7346, 12.4477, -13.1594, -3.7398, 8.0429, -14.1, 3.5289, 10.9065, -13.8607, 3.5289, 10.9065, -13.8607, 0.5231, 6.5259, -14.2897, 4.0569, 6.1665, -13.2299, 3.5289, 10.9065, -13.8607, 4.0569, 6.1665, -13.2299, 5.8773, 9.4003, -12.8417, 5.8773, 9.4003, -12.8417, 11.9305, 7.5132, -11.3643, 11.7474, 10.0779, -10.3007, 8.0886, 2.6082, -12.2628, 12.018, 1.8435, -10.1227, 11.9305, 7.5132, -11.3643, 9.0066, 0.0474, -11.7988, 6.1995, -6.2001, -11.3727, 9.9513, -2.4452, -9.0377, 2.7339, -8.1822, -11.5402, 1.1006, -11.8592, -8.8728, 3.806, -10.4742, -9.8806, -1.0368, -9.7394, -11.9345, -1.8582, -12.0437, -8.1183, 1.1006, -11.8592, -8.8728, -3.8404, -8.7837, -10.3248, -1.8582, -12.0437, -8.1183, -1.0368, -9.7394, -11.9345, 9.0758, 12.488, -10.1968, 6.5169, 12.4594, -10.5396, 5.8773, 9.4003, -12.8417, 6.5169, 12.4594, -10.5396, 3.4291, 13.3251, -12.2157, 3.5289, 10.9065, -13.8607, 3.4291, 13.3251, -12.2157, 0.2496, 14.8375, -8.2925, 0.7346, 12.4477, -13.1594, 6.5169, 12.4594, -10.5396, 4.8189, 14.9481, -5.3871, 3.4291, 13.3251, -12.2157, 0.2496, 14.8375, -8.2925, -1.6901, 15.205, -4.652, -5.9076, 10.9576, -8.8927, 11.7474, 10.0779, -10.3007, 13.3752, 10.8659, -3.0128, 10.0682, 13.7772, -2.7958, 11.7474, 10.0779, -10.3007, 10.0682, 13.7772, -2.7958, 9.0758, 12.488, -10.1968, 4.8189, 14.9481, -5.3871, -1.6901, 15.205, -4.652, 0.2496, 14.8375, -8.2925, 4.8189, 14.9481, -5.3871, 1.463, 13.5411, -1.2743, -1.6901, 15.205, -4.652, -5.9076, 10.9576, -8.8927, -1.6901, 15.205, -4.652, -5.457, 14.5478, 1.2914, 4.8189, 14.9481, -5.3871, 8.7023, 14.154, -0.1158, 5.4194, 15.734, 3.1388, 1.463, 13.5411, -1.2743, 5.4194, 15.734, 3.1388, 2.0989, 15.9789, 6.2941, 1.463, 13.5411, -1.2743, -3.2298, 13.5906, 3.3381, -1.6901, 15.205, -4.652, 5.4194, 15.734, 3.1388, 9.9763, 13.3683, 3.6792, 7.2832, 12.8919, 6.6116, 2.0989, 15.9789, 6.2941, 3.5027, 15.1544, 7.6532, -0.5845, 13.1902, 10.7753, 7.2832, 12.8919, 6.6116, 10.8114, 8.1199, 6.3888, 8.6934, 8.2217, 8.3081, 7.2832, 12.8919, 6.6116, 10.7816, 11.0917, 5.5469, 10.8114, 8.1199, 6.3888, -3.2298, 13.5906, 3.3381, 2.0989, 15.9789, 6.2941, -6.0299, 11.7711, 6.5251, 8.7023, 14.154, -0.1158, 10.8166, 10.0364, 1.009, 9.9763, 13.3683, 3.6792, 3.5027, 15.1544, 7.6532, 7.2832, 12.8919, 6.6116, 2.5328, 11.3983, 11.3562, 3.5289, 10.9065, -13.8607, 3.4291, 13.3251, -12.2157, 0.7346, 12.4477, -13.1594, -3.7398, 8.0429, -14.1, -2.957, 11.5049, -10.7616, -5.8657, 7.2983, -11.9129, -5.8657, 7.2983, -11.9129, -2.957, 11.5049, -10.7616, -5.9076, 10.9576, -8.8927, 7.2832, 12.8919, 6.6116, 8.6934, 8.2217, 8.3081, 5.6215, 7.4735, 10.1914, 10.7816, 11.0917, 5.5469, 10.8166, 10.0364, 1.009, 12.4168, 8.2345, 3.011, 10.7816, 11.0917, 5.5469, 9.9763, 13.3683, 3.6792, 10.8166, 10.0364, 1.009, 10.8166, 10.0364, 1.009, 13.3752, 10.8659, -3.0128, 13.5118, 9.0104, -1.1549, 10.0682, 13.7772, -2.7958, 13.3752, 10.8659, -3.0128, 10.8166, 10.0364, 1.009, 10.3499, -2.1297, 10.1064, 12.079, -4.0319, 6.6689, 10.4029, -6.1134, 8.3139, 10.3499, -2.1297, 10.1064, 11.7245, -0.1494, 7.9794, 12.079, -4.0319, 6.6689, 11.7474, 10.0779, -10.3007, 14.036, 8.5921, -7.1433, 13.3752, 10.8659, -3.0128, 10.3499, -2.1297, 10.1064, 7.6424, -0.5157, 13.3341, 11.7245, -0.1494, 7.9794, 8.2435, 4.3015, 9.5036, 8.6934, 8.2217, 8.3081, 12.5154, 5.0073, 4.9041, 7.4295, 2.9859, 12.1208, 3.3039, 5.7142, 13.0657, 8.2435, 4.3015, 9.5036, 8.2435, 4.3015, 9.5036, 5.6215, 7.4735, 10.1914, 8.6934, 8.2217, 8.3081, 2.6978, -8.8971, 12.5343, 0.4561, -5.2306, 16.0144, 5.4155, -4.6926, 14.305, 5.4155, -4.6926, 14.305, 0.4561, -5.2306, 16.0144, 3.6534, -2.8178, 15.8074, 5.4155, -4.6926, 14.305, 3.6534, -2.8178, 15.8074, 7.6424, -0.5157, 13.3341, 7.6424, -0.5157, 13.3341, 2.0156, 1.7459, 16.0406, 3.3039, 5.7142, 13.0657, 7.6424, -0.5157, 13.3341, 3.3039, 5.7142, 13.0657, 7.4295, 2.9859, 12.1208, 2.6978, -8.8971, 12.5343, -2.005, -5.6821, 15.4725, 0.4561, -5.2306, 16.0144, -4.0546, -10.7892, 6.7995, -4.1257, -6.1716, 12.1869, -2.005, -5.6821, 15.4725, 2.0156, 1.7459, 16.0406, -1.6757, -2.4615, 16.6051, -1.7649, 2.4583, 15.5033, -1.7649, 2.4583, 15.5033, -2.5682, 7.2817, 14.2511, 3.3039, 5.7142, 13.0657, -2.005, -5.6821, 15.4725, -5.5926, -0.4847, 13.3923, -1.6757, -2.4615, 16.6051, -14.0693, 0.1497, -3.1741, -10.5635, 3.6807, 1.355, -13.1029, -1.3533, -0.6974, -11.7892, 6.976, -1.6158, -10.5635, 3.6807, 1.355, -14.0693, 0.1497, -3.1741, 13.5669, 0.362, 4.9193, 8.2435, 4.3015, 9.5036, 12.5154, 5.0073, 4.9041, 12.5154, 5.0073, 4.9041, 10.8114, 8.1199, 6.3888, 12.4168, 8.2345, 3.011, 3.3039, 5.7142, 13.0657, -2.5682, 7.2817, 14.2511, 2.5328, 11.3983, 11.3562, -4.0611, 3.7309, 15.0019, -7.8978, 7.3462, 11.9124, -4.2708, 9.5205, 13.5764, -4.1257, -6.1716, 12.1869, -7.905, -1.8742, 11.3578, -5.5926, -0.4847, 13.3923, -4.1257, -6.1716, 12.1869, -11.3237, -5.1049, 3.725, -7.905, -1.8742, 11.3578, 9.186, -8.7988, 6.6451, 5.4155, -4.6926, 14.305, 10.4029, -6.1134, 8.3139, 9.186, -8.7988, 6.6451, 2.6978, -8.8971, 12.5343, 5.4155, -4.6926, 14.305, -11.3237, -5.1049, 3.725, -13.1029, -1.3533, -0.6974, -11.744, -0.1264, 5.5091, -11.427, 4.8531, 6.5173, -10.6672, 8.3405, 4.9395, -7.8978, 7.3462, 11.9124, -11.3237, -5.1049, 3.725, -12.9418, -5.1571, -4.7084, -13.1029, -1.3533, -0.6974, -13.1029, -1.3533, -0.6974, -12.9418, -5.1571, -4.7084, -14.0693, 0.1497, -3.1741, -5.9066, -3.3285, -12.2158, -7.8666, -6.8802, -9.5451, -6.4884, -7.6806, -10.3787, -5.9066, -3.3285, -12.2158, -8.2751, -1.8958, -10.6732, -7.8666, -6.8802, -9.5451, -10.5635, 3.6807, 1.355, -10.7367, 7.7039, 0.8138, -11.427, 4.8531, 6.5173, -10.5635, 3.6807, 1.355, -11.7892, 6.976, -1.6158, -10.7367, 7.7039, 0.8138, -14.0693, 0.1497, -3.1741, -12.8903, 3.1612, -5.6287, -11.7892, 6.976, -1.6158, -10.7367, 7.7039, 0.8138, -11.7892, 6.976, -1.6158, -7.3447, 12.6414, 0.6349, -11.1503, -8.5883, -4.7511, -10.5663, -4.6974, -8.5066, -12.9418, -5.1571, -4.7084, -14.0693, 0.1497, -3.1741, -11.8687, 1.6381, -8.5136, -12.8903, 3.1612, -5.6287, -12.8903, 3.1612, -5.6287, -10.2895, 7.2306, -6.8152, -11.7892, 6.976, -1.6158, -12.4751, -2.8971, -8.3809, -10.5663, -4.6974, -8.5066, -8.2751, -1.8958, -10.6732, -10.2895, 7.2306, -6.8152, -8.5885, 5.4624, -10.7293, -5.9076, 10.9576, -8.8927, -12.4751, -2.8971, -8.3809, -8.2751, -1.8958, -10.6732, -7.1687, 4.7869, -11.8459, -12.4751, -2.8971, -8.3809, -7.1687, 4.7869, -11.8459, -11.8687, 1.6381, -8.5136, -11.3237, -5.1049, 3.725, -11.744, -0.1264, 5.5091, -7.905, -1.8742, 11.3578, -9.8581, 2.5279, 10.0242, -11.427, 4.8531, 6.5173, -7.8978, 7.3462, 11.9124, -10.6672, 8.3405, 4.9395, -7.3447, 12.6414, 0.6349, -6.0299, 11.7711, 6.5251, -11.7892, 6.976, -1.6158, -5.9076, 10.9576, -8.8927, -7.3447, 12.6414, 0.6349, -11.7892, 6.976, -1.6158, -10.2895, 7.2306, -6.8152, -5.9076, 10.9576, -8.8927, -8.5885, 5.4624, -10.7293, -5.8657, 7.2983, -11.9129, -5.9076, 10.9576, -8.8927, -8.2751, -1.8958, -10.6732, -5.2436, 2.6045, -13.2765, -7.1687, 4.7869, -11.8459, -8.2751, -1.8958, -10.6732, -5.4923, -0.1213, -13.4285, -5.2436, 2.6045, -13.2765, -9.2503, -10.284, -4.0031, -7.8666, -6.8802, -9.5451, -11.1503, -8.5883, -4.7511, -11.3237, -5.1049, 3.725, -11.1503, -8.5883, -4.7511, -12.9418, -5.1571, -4.7084, -11.3237, -5.1049, 3.725, -8.7245, -9.376, 2.2661, -11.1503, -8.5883, -4.7511, -1.8582, -12.0437, -8.1183, 0.896, -12.8624, -3.7052, 1.1006, -11.8592, -8.8728, -1.4097, -12.5917, -4.4373, -9.2503, -10.284, -4.0031, -3.2751, -11.3853, -1.5127, -3.2751, -11.3853, -1.5127, -9.2503, -10.284, -4.0031, -4.3487, -10.9726, 3.2642, -0.5952, -10.5369, 0.2602, -4.3487, -10.9726, 3.2642, 3.1014, -11.5515, 3.4795, 0.896, -12.8624, -3.7052, -0.5952, -10.5369, 0.2602, 3.1014, -11.5515, 3.4795, 3.7597, -12.1994, -4.0729, 3.1014, -11.5515, 3.4795, 6.3649, -11.2934, 3.2739, -9.2503, -10.284, -4.0031, -8.7245, -9.376, 2.2661, -4.0546, -10.7892, 6.7995, 3.806, -10.4742, -9.8806, 1.1006, -11.8592, -8.8728, 3.7597, -12.1994, -4.0729, 6.9163, -8.7128, -7.929, 3.7597, -12.1994, -4.0729, 10.306, -8.9814, -3.9613, 10.306, -8.9814, -3.9613, 6.3649, -11.2934, 3.2739, 10.6845, -7.5837, 2.9043, 6.3649, -11.2934, 3.2739, 9.186, -8.7988, 6.6451, 10.6845, -7.5837, 2.9043, 0.6408, -11.4988, 6.2648, -4.0546, -10.7892, 6.7995, 2.6978, -8.8971, 12.5343, 12.6984, -4.5116, -6.7237, 14.4786, -1.0671, -8.0035, 12.018, 1.8435, -10.1227, 12.018, 1.8435, -10.1227, 14.4786, -1.0671, -8.0035, 15.1632, 2.1404, -7.1599, 12.4707, -7.9909, -1.8345, 14.4471, -5.5743, -0.8979, 14.1602, -4.1661, -5.3444, 14.1602, -4.1661, -5.3444, 15.1632, 2.1404, -7.1599, 14.4786, -1.0671, -8.0035, 14.4471, -5.5743, -0.8979, 15.8627, -1.7971, 0.4955, 15.1632, 2.1404, -7.1599, 15.1632, 2.1404, -7.1599, 15.6279, 6.0672, -1.9107, 14.036, 8.5921, -7.1433, 10.6845, -7.5837, 2.9043, 13.2293, -4.6382, 2.7884, 14.4471, -5.5743, -0.8979, 13.2293, -4.6382, 2.7884, 15.8627, -1.7971, 0.4955, 14.4471, -5.5743, -0.8979, 15.6279, 6.0672, -1.9107, 14.8501, 5.4279, 2.5451, 13.5118, 9.0104, -1.1549, 15.6279, 6.0672, -1.9107, 13.5118, 9.0104, -1.1549, 13.3752, 10.8659, -3.0128, 12.079, -4.0319, 6.6689, 11.7245, -0.1494, 7.9794, 13.5669, 0.362, 4.9193, 13.2293, -4.6382, 2.7884, 12.079, -4.0319, 6.6689, 13.5669, 0.362, 4.9193, -3.8404, -8.7837, -10.3248, -1.0368, -9.7394, -11.9345, -2.0744, -4.2658, -12.4968, -1.0368, -9.7394, -11.9345, 0.5814, -3.1296, -12.8305, -2.0744, -4.2658, -12.4968, -2.0744, -4.2658, -12.4968, 0.5814, -3.1296, -12.8305, -5.4923, -0.1213, -13.4285, -5.4923, -0.1213, -13.4285, 0.0579, 1.2819, -13.8574, -5.2436, 2.6045, -13.2765, 0.5814, -3.1296, -12.8305, 0.0579, 1.2819, -13.8574, -5.4923, -0.1213, -13.4285, 0.0579, 1.2819, -13.8574, 0.5231, 6.5259, -14.2897, -4.1645, 5.2747, -14.19, -1.0368, -9.7394, -11.9345, 2.7339, -8.1822, -11.5402, 0.5814, -3.1296, -12.8305, 0.5814, -3.1296, -12.8305, 2.7339, -8.1822, -11.5402, 4.6715, -0.9065, -11.9393, 0.5231, 6.5259, -14.2897, 3.0453, 2.8215, -11.929, 4.0569, 6.1665, -13.2299, 4.6715, -0.9065, -11.9393, 6.1995, -6.2001, -11.3727, 9.0066, 0.0474, -11.7988, 4.6715, -0.9065, -11.9393, 9.0066, 0.0474, -11.7988, 8.0886, 2.6082, -12.2628, 4.0569, 6.1665, -13.2299, 8.0886, 2.6082, -12.2628, 5.8773, 9.4003, -12.8417, -3.8404, -8.7837, -10.3248, -2.0744, -4.2658, -12.4968, -5.9066, -3.3285, -12.2158, -7.1687, 4.7869, -11.8459, -5.2436, 2.6045, -13.2765, -4.1645, 5.2747, -14.19, -3.7398, 8.0429, -14.1, 0.5231, 6.5259, -14.2897, 3.5289, 10.9065, -13.8607, 8.0886, 2.6082, -12.2628, 11.9305, 7.5132, -11.3643, 5.8773, 9.4003, -12.8417, 9.0066, 0.0474, -11.7988, 12.018, 1.8435, -10.1227, 8.0886, 2.6082, -12.2628, 9.0066, 0.0474, -11.7988, 9.9513, -2.4452, -9.0377, 12.018, 1.8435, -10.1227, 6.1995, -6.2001, -11.3727, 6.9163, -8.7128, -7.929, 9.9513, -2.4452, -9.0377, -1.0368, -9.7394, -11.9345, 1.1006, -11.8592, -8.8728, 2.7339, -8.1822, -11.5402 )

[node name="ast_2_cr" instance=ExtResource( 1 )]

[node name="StaticBody" type="StaticBody" parent="ast_2" index="0"]

[node name="CollisionShape" type="CollisionShape" parent="ast_2/StaticBody" index="0"]
shape = SubResource( 1 )
