[gd_scene load_steps=9 format=2]

[ext_resource path="res://blokoj/kosmostacioj/resursoj/CapKosmostacio/Kosmostacio.tscn" type="PackedScene" id=1]
[ext_resource path="res://blokoj/kosmostacioj/resursoj/CapKosmostacio/forcefield/forcefield.tscn" type="PackedScene" id=2]
[ext_resource path="res://blokoj/kosmostacioj/resursoj/CapKosmostacio/OmniLight.tscn" type="PackedScene" id=3]
[ext_resource path="res://blokoj/kosmostacioj/resursoj/CapKosmostacio/textures/Stars Sphere.jpg" type="Texture" id=4]
[ext_resource path="res://blokoj/kosmostacioj/skriptoj/Camera.gd" type="Script" id=5]
[ext_resource path="res://blokoj/kosmostacioj/skriptoj/CapKosmostacio.gd" type="Script" id=6]

[sub_resource type="PanoramaSky" id=1]
panorama = ExtResource( 4 )

[sub_resource type="Environment" id=2]
background_mode = 2
background_sky = SubResource( 1 )
background_energy = 2.0

[node name="CapKosmostacio" type="Spatial"]
script = ExtResource( 6 )

[node name="WorldEnvironment" type="WorldEnvironment" parent="."]
environment = SubResource( 2 )

[node name="Kosmostacio" parent="." instance=ExtResource( 1 )]

[node name="Light" parent="." instance=ExtResource( 3 )]
transform = Transform( 1, 0, 0, 0, 1, 0, 0, 0, 1, 0, -3.06387, 15.6992 )

[node name="Forcefield" parent="." instance=ExtResource( 2 )]
transform = Transform( -35, 8.74228e-08, 4.20351e-14, 0, -4.37114e-08, 11, 3.0598e-06, 1, 4.80825e-07, 0, 10.6259, -32.2447 )

[node name="camera" type="Camera" parent="."]
transform = Transform( 0.0854123, 0.140573, -0.986379, -0.0121271, 0.99007, 0.140049, 0.996272, 9.34807e-10, 0.0862689, -0.956009, 5.66859, 0 )
script = ExtResource( 5 )
[connection signal="ready" from="." to="." method="_on_CapKosmostacio_ready"]
