[gd_scene load_steps=8 format=2]

[ext_resource path="res://blokoj/kosmostacioj/resursoj/hangaro/Balcony.glb" type="PackedScene" id=1]
[ext_resource path="res://blokoj/kosmostacioj/resursoj/hangaro/BoxHangar.glb" type="PackedScene" id=2]
[ext_resource path="res://blokoj/kosmostacioj/resursoj/hangaro/DoorsEmpty.glb" type="PackedScene" id=3]
[ext_resource path="res://blokoj/kosmostacioj/resursoj/hangaro/hangar.tscn" type="PackedScene" id=4]
[ext_resource path="res://blokoj/kosmostacioj/resursoj/hangaro/ceiling.glb" type="PackedScene" id=5]
[ext_resource path="res://blokoj/kosmostacioj/resursoj/player/Player.tscn" type="PackedScene" id=6]
[ext_resource path="res://blokoj/kosmostacioj/stancio_env.tres" type="Environment" id=7]

[node name="Spatial" type="Spatial"]

[node name="Balcony" parent="." instance=ExtResource( 1 )]
transform = Transform( 1, 0, 0, 0, 1, 0, 0, 0, 1, -1.2239, 0.425532, -6.71631 )

[node name="BoxHangar" parent="." instance=ExtResource( 2 )]
transform = Transform( 1, 0, 0, 0, 1, 0, 0, 0, 1, -1.16312, 0.413778, -6.71959 )

[node name="DoorsEmpty" parent="." instance=ExtResource( 3 )]
transform = Transform( 1, 0, 0, 0, 1, 0, 0, 0, 1, -1.07713, 0.375931, -6.88528 )

[node name="ceiling" parent="." instance=ExtResource( 5 )]
transform = Transform( 1, 0, 0, 0, 1, 0, 0, 0, 1, -1.03973, 20.4599, 35.0616 )

[node name="OmniLight" type="OmniLight" parent="ceiling"]
transform = Transform( 1, 0, 0, 0, 1, 0, 0, 0, 1, 0, -1.22433, 0 )
light_color = Color( 0.992157, 0.968627, 0.635294, 1 )
light_energy = 7.14

[node name="Player" parent="." instance=ExtResource( 6 )]
transform = Transform( 1, 0, 0, 0, 1, 0, 0, 0, 1, 0, 0.0106155, 0 )

[node name="hangar" parent="." instance=ExtResource( 4 )]

[node name="WorldEnvironment" type="WorldEnvironment" parent="."]
environment = ExtResource( 7 )
