[gd_scene load_steps=4 format=2]

[ext_resource path="res://blokoj/kosmosxipoj/resursoj/skif/enginsModul2.glb" type="PackedScene" id=1]

[sub_resource type="ConvexPolygonShape" id=1]
points = PoolVector3Array( -2.23188, -0.197907, -3.88432, -2.16091, -0.305178, -3.88432, -2.03746, -0.218993, -2.35364, -2.09145, -0.13739, -2.35364, -2.1188, -0.175861, -3.90123, -2.21599, -0.19512, -3.90123, -2.27445, -0.0436249, -3.90123, -2.19671, -0.0415258, -3.90123, -2.27641, 0.123113, -3.90123, -2.19701, 0.113765, -3.90123, -2.11963, 0.248403, -3.90123, -2.22366, 0.270087, -3.90123, -1.98529, 0.32631, -3.90123, -1.43872, 0.381002, -3.90123, -1.69537, 0.249229, -3.90123, -1.83, 0.326613, -3.90123, -2.15485, 0.379608, -3.90123, -2.23747, 0.277126, -3.88431, -2.09586, 0.237243, -2.35364, -2.04606, 0.316496, -2.35364, -2.17191, 0.381476, -3.88431, -2.01103, -0.23314, -2.3537, -2.13447, -0.31932, -3.88426, -1.39453, -0.317879, -3.88426, -1.43107, -0.232011, -2.3537, -2.28971, -0.0479871, -3.88431, -2.13706, -0.019156, -2.35364, -2.29176, 0.125887, -3.88431, -2.13867, 0.117969, -2.35364, -2.23747, 0.277126, -3.88431, 2.21599, -0.19512, -3.90123, 2.1444, -0.303292, -3.90123, 1.98417, -0.253244, -3.90123, 1.39439, -0.301832, -3.90123, 1.82887, -0.252942, -3.90123, 1.69454, -0.175034, -3.90123, 1.61716, -0.0403969, -3.90123, 1.40521, 0.381069, -3.90123, 2.1188, -0.175861, -3.90123, 1.61746, 0.114894, -3.90123, 1.69537, 0.249229, -3.90123, 1.43872, 0.381002, -3.90123, -2.13706, -0.019156, -2.35364, -2.0747, -0.128881, -2.33672, -2.01759, -0.2152, -2.33672, -1.43175, -0.214059, -2.33672, -1.44012, 0.314332, -2.33672, -2.11841, -0.0155759, -2.33672, -2.11994, 0.11502, -2.33672, -2.07891, 0.229322, -2.33672, -2.02622, 0.313191, -2.33672, -2.1458, 0.395901, -3.88425, -2.01997, 0.330927, -2.35371, -1.44001, 0.332056, -2.35371, -1.40586, 0.397343, -3.88425, 2.03746, -0.218993, -2.35364, 2.16091, -0.305178, -3.88432, 2.23188, -0.197907, -3.88432, 2.09145, -0.13739, -2.35364, 1.39453, -0.317879, -3.88426, 2.13447, -0.31932, -3.88426, 2.01103, -0.23314, -2.3537, 1.43107, -0.232011, -2.3537, 2.04606, 0.316496, -2.35364, 2.09586, 0.237243, -2.35364, 2.23747, 0.277126, -3.88431, 2.17191, 0.381476, -3.88431, 1.44001, 0.332056, -2.35371, 2.01997, 0.330927, -2.35371, 2.1458, 0.395901, -3.88425, 1.40586, 0.397343, -3.88425, 2.28971, -0.0479871, -3.88431, 2.13706, -0.019156, -2.35364, 2.09586, 0.237243, -2.35364, 2.13867, 0.117969, -2.35364, 2.29176, 0.125887, -3.88431, 2.13867, 0.117969, -2.35364, 1.43175, -0.214059, -2.33672, 2.01759, -0.2152, -2.33672, 2.0747, -0.128881, -2.33672, 1.44012, 0.314332, -2.33672, 2.11841, -0.0155759, -2.33672, 2.11994, 0.11502, -2.33672, 2.07891, 0.229322, -2.33672, 2.02622, 0.313191, -2.33672, 2.27445, -0.0436249, -3.90123, 2.19671, -0.0415258, -3.90123, 2.27641, 0.123113, -3.90123, 2.19701, 0.113765, -3.90123, 2.11963, 0.248403, -3.90123, 2.22366, 0.270087, -3.90123, 1.98529, 0.32631, -3.90123, 1.83, 0.326613, -3.90123, 1.43872, 0.381002, -3.90123, 2.15485, 0.379608, -3.90123, -1.43872, 0.381002, -3.90123, -1.40586, 0.397343, -3.88425, -1.40521, 0.381069, -3.90123, -2.15485, 0.379608, -3.90123, -2.17191, 0.381476, -3.88431, -2.1458, 0.395901, -3.88425, -2.1444, -0.303292, -3.90123, -2.13447, -0.31932, -3.88426, -2.16091, -0.305178, -3.88432, -2.01759, -0.2152, -2.33672, -2.03746, -0.218993, -2.35364, -2.01103, -0.23314, -2.3537, -2.02622, 0.313191, -2.33672, -2.01997, 0.330927, -2.35371, -2.04606, 0.316496, -2.35364, 1.40586, 0.397343, -3.88425, 1.43872, 0.381002, -3.90123, 1.40521, 0.381069, -3.90123, 2.15485, 0.379608, -3.90123, 2.1458, 0.395901, -3.88425, 2.17191, 0.381476, -3.88431, 2.1444, -0.303292, -3.90123, 2.16091, -0.305178, -3.88432, 2.13447, -0.31932, -3.88426, 2.01759, -0.2152, -2.33672, 2.01103, -0.23314, -2.3537, 2.03746, -0.218993, -2.35364, 2.02622, 0.313191, -2.33672, 2.04606, 0.316496, -2.35364, 2.01997, 0.330927, -2.35371, -1.40586, 0.397343, -3.88425, -1.39453, -0.317879, -3.88426, -1.39439, -0.301832, -3.90123, -1.44012, 0.314332, -2.33672, -1.44001, 0.332056, -2.35371, -1.43107, -0.232011, -2.3537, -1.43175, -0.214059, -2.33672, -2.13706, -0.019156, -2.35364, -2.09145, -0.13739, -2.35364, -2.0747, -0.128881, -2.33672, -2.11841, -0.0155759, -2.33672, -2.21599, -0.19512, -3.90123, -2.23188, -0.197907, -3.88432, -2.28971, -0.0479871, -3.88431, -2.27445, -0.0436249, -3.90123, -2.13867, 0.117969, -2.35364, -2.13706, -0.019156, -2.35364, -2.11994, 0.11502, -2.33672, -2.29176, 0.125887, -3.88431, -2.27641, 0.123113, -3.90123, -2.07891, 0.229322, -2.33672, -2.09586, 0.237243, -2.35364, -2.22366, 0.270087, -3.90123, -2.23747, 0.277126, -3.88431, -2.23747, 0.277126, -3.88431, 1.39453, -0.317879, -3.88426, 1.39439, -0.301832, -3.90123, 1.44012, 0.314332, -2.33672, 1.44001, 0.332056, -2.35371, 1.43107, -0.232011, -2.3537, 1.43175, -0.214059, -2.33672, 2.0747, -0.128881, -2.33672, 2.09145, -0.13739, -2.35364, 2.13706, -0.019156, -2.35364, 2.11841, -0.0155759, -2.33672, 2.28971, -0.0479871, -3.88431, 2.23188, -0.197907, -3.88432, 2.21599, -0.19512, -3.90123, 2.27445, -0.0436249, -3.90123, 2.13867, 0.117969, -2.35364, 2.11994, 0.11502, -2.33672, 2.29176, 0.125887, -3.88431, 2.27641, 0.123113, -3.90123, 2.07891, 0.229322, -2.33672, 2.13867, 0.117969, -2.35364, 2.09586, 0.237243, -2.35364, 2.22366, 0.270087, -3.90123, 2.23747, 0.277126, -3.88431, 2.09586, 0.237243, -2.35364, -1.39439, -0.301832, -3.90123, -2.1444, -0.303292, -3.90123, -1.98417, -0.253244, -3.90123, -1.40521, 0.381069, -3.90123, -1.61716, -0.0403969, -3.90123, -1.69454, -0.175034, -3.90123, -1.82887, -0.252942, -3.90123, -1.61746, 0.114894, -3.90123 )

[sub_resource type="ConvexPolygonShape" id=2]
points = PoolVector3Array( -2.12044, 0.247166, -3.81556, -2.06733, 0.194056, -3.61556, -1.96651, 0.252262, -3.61556, -1.98595, 0.324811, -3.81556, -1.8501, 0.252262, -3.61556, -1.83066, 0.324811, -3.81556, -1.74929, 0.194055, -3.61556, -1.69618, 0.247165, -3.81556, -1.69108, 0.0932395, -3.61556, -1.61853, 0.112679, -3.81556, -1.69108, -0.0231726, -3.61556, -1.61853, -0.0426123, -3.81556, -1.74929, -0.123989, -3.61556, -1.69618, -0.177099, -3.81556, -1.8501, -0.182195, -3.61556, -1.83066, -0.254744, -3.81556, -1.96651, -0.182195, -3.61556, -1.98595, -0.254744, -3.81556, -2.12044, -0.177099, -3.81556, -2.06733, -0.123989, -3.61556, -2.19809, -0.0426124, -3.81556, -2.12554, -0.0231726, -3.61556, -2.19809, 0.112679, -3.81556, -2.12554, 0.0932393, -3.61556, -2.06733, 0.194056, -3.61556, -2.12044, 0.247166, -3.81556, -1.98595, 0.324811, -4.00556, -2.12044, 0.247166, -4.00556, -2.13003, -0.0243772, -4.01556, -2.18809, -0.0399329, -4.01556, -2.18809, 0.11, -4.01556, -2.13003, 0.0944438, -4.01556, -2.07062, -0.127279, -4.01556, -2.11312, -0.169778, -4.01556, -1.96772, -0.18669, -4.01556, -1.98327, -0.244744, -4.01556, -1.83334, -0.244744, -4.01556, -1.8489, -0.18669, -4.01556, -1.7035, -0.169778, -4.01556, -1.83334, -0.244744, -4.01556, -1.746, -0.127279, -4.01556, -1.62853, -0.0399328, -4.01556, -1.7035, -0.169778, -4.01556, -1.68658, -0.024377, -4.01556, -1.62853, 0.11, -4.01556, -1.62853, -0.0399328, -4.01556, -1.68658, 0.094444, -4.01556, -1.746, 0.197346, -4.01556, -1.7035, 0.239845, -4.01556, -1.8489, 0.256757, -4.01556, -1.83334, 0.314811, -4.01556, -1.83334, 0.314811, -4.01556, -1.96772, 0.256757, -4.01556, -1.98327, 0.314811, -4.01556, -2.07062, 0.197346, -4.01556, -2.18809, 0.11, -4.01556, -2.11312, 0.239845, -4.01556, -2.12044, 0.247166, -4.00556, -2.19809, 0.112679, -4.00556, -1.69618, 0.247165, -4.00556, -1.83066, 0.324811, -4.00556, -1.61853, 0.112679, -4.00556, -1.61853, -0.0426123, -4.00556, -1.69618, -0.177099, -4.00556, -1.83066, -0.254744, -4.00556, -1.98595, -0.254744, -4.00556, -2.12044, -0.177099, -4.00556, -1.98595, -0.254744, -4.00556, -2.19809, -0.0426124, -4.00556, -2.19809, 0.112679, -4.00556, 2.11312, 0.239845, -4.01556, 2.07062, 0.197346, -4.01556, 1.96772, 0.256757, -4.01556, 1.98327, 0.314811, -4.01556, 1.96651, 0.252262, -3.61556, 2.06733, 0.194056, -3.61556, 2.12044, 0.247166, -3.81556, 1.98595, 0.324811, -3.81556, 1.8501, 0.252262, -3.61556, 1.83066, 0.324811, -3.81556, 1.69618, 0.247165, -3.81556, 1.74929, 0.194055, -3.61556, 1.61853, 0.112679, -3.81556, 1.69108, 0.0932395, -3.61556, 1.61853, -0.0426123, -3.81556, 1.69108, -0.0231726, -3.61556, 1.69618, -0.177099, -3.81556, 1.74929, -0.123989, -3.61556, 1.83066, -0.254744, -3.81556, 1.8501, -0.182195, -3.61556, 1.98595, -0.254744, -3.81556, 1.96651, -0.182195, -3.61556, 2.12044, -0.177099, -3.81556, 2.06733, -0.123989, -3.61556, 2.19809, -0.0426124, -3.81556, 2.12554, -0.0231726, -3.61556, 2.19809, 0.112679, -3.81556, 2.12554, 0.0932393, -3.61556, 2.06733, 0.194056, -3.61556, 2.12044, 0.247166, -3.81556, 1.98595, 0.324811, -4.00556, 1.83066, 0.324811, -4.00556, 2.18809, 0.11, -4.01556, 2.18809, -0.0399329, -4.01556, 2.13003, -0.0243772, -4.01556, 2.13003, 0.0944438, -4.01556, 2.11312, -0.169778, -4.01556, 2.07062, -0.127279, -4.01556, 1.98327, -0.244744, -4.01556, 1.96772, -0.18669, -4.01556, 1.83334, -0.244744, -4.01556, 1.8489, -0.18669, -4.01556, 1.83334, -0.244744, -4.01556, 1.7035, -0.169778, -4.01556, 1.746, -0.127279, -4.01556, 1.7035, -0.169778, -4.01556, 1.62853, -0.0399328, -4.01556, 1.68658, -0.024377, -4.01556, 1.62853, -0.0399328, -4.01556, 1.62853, 0.11, -4.01556, 1.68658, 0.094444, -4.01556, 1.746, 0.197346, -4.01556, 1.7035, 0.239845, -4.01556, 1.8489, 0.256757, -4.01556, 1.83334, 0.314811, -4.01556, 1.83334, 0.314811, -4.01556, 2.18809, 0.11, -4.01556, 2.12044, 0.247166, -4.00556, 1.69618, 0.247165, -4.00556, 1.61853, 0.112679, -4.00556, 1.61853, -0.0426123, -4.00556, 1.69618, -0.177099, -4.00556, 1.83066, -0.254744, -4.00556, 1.98595, -0.254744, -4.00556, 1.98595, -0.254744, -4.00556, 2.12044, -0.177099, -4.00556, 2.19809, -0.0426124, -4.00556, 2.19809, 0.112679, -4.00556, 2.19809, 0.112679, -4.00556, 2.12044, 0.247166, -4.00556, -1.98327, 0.314811, -4.01556, -2.11312, 0.239845, -4.01556, -2.12044, 0.247166, -4.00556, -1.98595, 0.324811, -4.00556, -1.83334, 0.314811, -4.01556, -1.98327, 0.314811, -4.01556, -1.83066, 0.324811, -4.00556, -1.69618, 0.247165, -4.00556, -1.7035, 0.239845, -4.01556, -1.83334, 0.314811, -4.01556, -1.61853, 0.112679, -4.00556, -1.62853, 0.11, -4.01556, -1.7035, 0.239845, -4.01556, -1.61853, -0.0426123, -4.00556, -1.62853, -0.0399328, -4.01556, -1.62853, 0.11, -4.01556, -1.69618, -0.177099, -4.00556, -1.7035, -0.169778, -4.01556, -1.62853, -0.0399328, -4.01556, -1.83066, -0.254744, -4.00556, -1.83334, -0.244744, -4.01556, -1.7035, -0.169778, -4.01556, -1.83334, -0.244744, -4.01556, -1.98595, -0.254744, -4.00556, -1.98327, -0.244744, -4.01556, -1.98327, -0.244744, -4.01556, -1.98595, -0.254744, -4.00556, -2.12044, -0.177099, -4.00556, -2.11312, -0.169778, -4.01556, -2.11312, -0.169778, -4.01556, -2.19809, -0.0426124, -4.00556, -2.18809, -0.0399329, -4.01556, -2.18809, -0.0399329, -4.01556, -2.19809, 0.112679, -4.00556, -2.18809, 0.11, -4.01556, -2.11312, 0.239845, -4.01556, -2.18809, 0.11, -4.01556, -2.19809, 0.112679, -4.00556, -2.12044, 0.247166, -4.00556, 2.12044, 0.247166, -4.00556, 2.11312, 0.239845, -4.01556, 1.98327, 0.314811, -4.01556, 1.98595, 0.324811, -4.00556, 1.83334, 0.314811, -4.01556, 1.83066, 0.324811, -4.00556, 1.83334, 0.314811, -4.01556, 1.7035, 0.239845, -4.01556, 1.69618, 0.247165, -4.00556, 1.62853, 0.11, -4.01556, 1.61853, 0.112679, -4.00556, 1.62853, -0.0399328, -4.01556, 1.61853, -0.0426123, -4.00556, 1.7035, -0.169778, -4.01556, 1.69618, -0.177099, -4.00556, 1.62853, -0.0399328, -4.01556, 1.83334, -0.244744, -4.01556, 1.83066, -0.254744, -4.00556, 1.7035, -0.169778, -4.01556, 1.98327, -0.244744, -4.01556, 1.98595, -0.254744, -4.00556, 1.83334, -0.244744, -4.01556, 2.12044, -0.177099, -4.00556, 2.11312, -0.169778, -4.01556, 2.19809, -0.0426124, -4.00556, 2.18809, -0.0399329, -4.01556, 2.19809, 0.112679, -4.00556, 2.18809, 0.11, -4.01556, 2.18809, 0.11, -4.01556, -1.82425, -0.0490198, -3.976, -1.87754, -0.0797855, -3.976, -1.93907, -0.0797855, -3.976, -1.99236, -0.0490199, -3.976, -2.02313, 0.00426769, -3.976, -1.79349, 0.00426787, -3.976, -2.02313, 0.0657991, -3.976, -1.79349, 0.0657992, -3.976, -1.99236, 0.119087, -3.976, -1.82425, 0.119087, -3.976, -1.87754, 0.149853, -3.976, -1.93907, 0.149853, -3.976, 1.93907, -0.0797855, -3.976, 1.87754, -0.0797855, -3.976, 1.82425, -0.0490198, -3.976, 1.99236, -0.0490199, -3.976, 2.02313, 0.00426769, -3.976, 1.79349, 0.00426787, -3.976, 2.02313, 0.0657991, -3.976, 1.79349, 0.0657992, -3.976, 1.99236, 0.119087, -3.976, 1.82425, 0.119087, -3.976, 1.93907, 0.149853, -3.976, 1.87754, 0.149853, -3.976, -2.07062, -0.127279, -3.81707, -1.96772, -0.18669, -3.81707, -1.96772, -0.18669, -4.01556, -2.07062, -0.127279, -4.01556, -1.99236, 0.119087, -3.976, -2.02313, 0.0657991, -3.976, -2.02313, 0.0657991, -3.81707, -1.99236, 0.119087, -3.81707, -1.68658, -0.024377, -4.01556, -1.746, -0.127279, -4.01556, -1.746, -0.127279, -3.81707, -1.68658, -0.024377, -3.81707, -1.8489, 0.256757, -4.01556, -1.746, 0.197346, -4.01556, -1.746, 0.197346, -3.81707, -1.8489, 0.256757, -3.81707, -2.13003, -0.0243772, -3.81707, -2.13003, -0.0243772, -4.01556, -1.8489, -0.18669, -4.01556, -1.8489, -0.18669, -3.81707, -1.68658, 0.094444, -4.01556, -1.68658, 0.094444, -3.81707, -2.13003, 0.0944438, -3.81707, -2.13003, 0.0944438, -4.01556, -1.96772, 0.256757, -3.81707, -2.07062, 0.197346, -3.81707, -2.07062, 0.197346, -4.01556, -1.96772, 0.256757, -4.01556, -1.93907, 0.149853, -3.81707, -1.99236, 0.119087, -3.81707, -2.07062, 0.197346, -3.81707, -1.96772, 0.256757, -3.81707, -1.8489, 0.256757, -3.81707, -1.87754, 0.149853, -3.81707, -1.746, 0.197346, -3.81707, -1.82425, 0.119087, -3.81707, -1.68658, 0.094444, -3.81707, -1.79349, 0.0657992, -3.81707, -1.68658, -0.024377, -3.81707, -1.79349, 0.00426787, -3.81707, -1.746, -0.127279, -3.81707, -1.82425, -0.0490198, -3.81707, -1.8489, -0.18669, -3.81707, -1.87754, -0.0797855, -3.81707, -1.96772, -0.18669, -3.81707, -1.93907, -0.0797855, -3.81707, -2.07062, -0.127279, -3.81707, -1.99236, -0.0490199, -3.81707, -2.13003, -0.0243772, -3.81707, -2.02313, 0.00426769, -3.81707, -2.13003, 0.0944438, -3.81707, -2.02313, 0.0657991, -3.81707, -1.87754, 0.149853, -3.81707, -1.87754, 0.149853, -3.976, -1.93907, 0.149853, -3.976, -1.93907, 0.149853, -3.81707, -1.99236, -0.0490199, -3.976, -1.93907, -0.0797855, -3.976, -1.93907, -0.0797855, -3.81707, -1.99236, -0.0490199, -3.81707, -1.79349, 0.00426787, -3.81707, -1.82425, -0.0490198, -3.81707, -1.82425, -0.0490198, -3.976, -1.79349, 0.00426787, -3.976, -1.82425, 0.119087, -3.81707, -1.82425, 0.119087, -3.976, -2.02313, 0.00426769, -3.976, -2.02313, 0.00426769, -3.81707, -1.87754, -0.0797855, -3.81707, -1.87754, -0.0797855, -3.976, -1.79349, 0.0657992, -3.81707, -1.79349, 0.0657992, -3.976, 2.07062, -0.127279, -4.01556, 1.96772, -0.18669, -4.01556, 1.96772, -0.18669, -3.81707, 2.07062, -0.127279, -3.81707, 1.99236, 0.119087, -3.81707, 2.02313, 0.0657991, -3.81707, 2.02313, 0.0657991, -3.976, 1.99236, 0.119087, -3.976, 1.68658, -0.024377, -3.81707, 1.746, -0.127279, -3.81707, 1.746, -0.127279, -4.01556, 1.68658, -0.024377, -4.01556, 1.8489, 0.256757, -3.81707, 1.746, 0.197346, -3.81707, 1.746, 0.197346, -4.01556, 1.8489, 0.256757, -4.01556, 2.13003, -0.0243772, -4.01556, 2.13003, -0.0243772, -3.81707, 1.8489, -0.18669, -3.81707, 1.8489, -0.18669, -4.01556, 1.68658, 0.094444, -3.81707, 1.68658, 0.094444, -4.01556, 2.13003, 0.0944438, -4.01556, 2.13003, 0.0944438, -3.81707, 2.07062, 0.197346, -4.01556, 2.07062, 0.197346, -3.81707, 1.96772, 0.256757, -3.81707, 1.96772, 0.256757, -4.01556, 2.07062, 0.197346, -3.81707, 1.99236, 0.119087, -3.81707, 1.93907, 0.149853, -3.81707, 1.96772, 0.256757, -3.81707, 1.87754, 0.149853, -3.81707, 1.8489, 0.256757, -3.81707, 1.82425, 0.119087, -3.81707, 1.746, 0.197346, -3.81707, 1.79349, 0.0657992, -3.81707, 1.68658, 0.094444, -3.81707, 1.79349, 0.00426787, -3.81707, 1.68658, -0.024377, -3.81707, 1.82425, -0.0490198, -3.81707, 1.746, -0.127279, -3.81707, 1.87754, -0.0797855, -3.81707, 1.8489, -0.18669, -3.81707, 1.93907, -0.0797855, -3.81707, 1.96772, -0.18669, -3.81707, 2.07062, -0.127279, -3.81707, 1.99236, -0.0490199, -3.81707, 2.13003, -0.0243772, -3.81707, 2.02313, 0.00426769, -3.81707, 2.13003, 0.0944438, -3.81707, 2.02313, 0.0657991, -3.81707, 1.93907, 0.149853, -3.81707, 1.93907, 0.149853, -3.976, 1.87754, 0.149853, -3.976, 1.87754, 0.149853, -3.81707, 1.99236, -0.0490199, -3.81707, 1.93907, -0.0797855, -3.81707, 1.93907, -0.0797855, -3.976, 1.99236, -0.0490199, -3.976, 1.79349, 0.00426787, -3.976, 1.82425, -0.0490198, -3.976, 1.82425, -0.0490198, -3.81707, 1.79349, 0.00426787, -3.81707, 1.82425, 0.119087, -3.976, 1.82425, 0.119087, -3.81707, 2.02313, 0.00426769, -3.81707, 2.02313, 0.00426769, -3.976, 1.87754, -0.0797855, -3.976, 1.87754, -0.0797855, -3.81707, 1.79349, 0.0657992, -3.976, 1.79349, 0.0657992, -3.81707 )

[node name="enginsModul2" instance=ExtResource( 1 )]

[node name="CollisionShape2" type="CollisionShape" parent="." index="2"]
shape = SubResource( 1 )

[node name="CollisionShape3" type="CollisionShape" parent="." index="4"]
shape = SubResource( 2 )
