[gd_scene load_steps=3 format=2]

[ext_resource path="res://blokoj/kosmosxipoj/resursoj/skif/gunsModul.glb" type="PackedScene" id=1]

[sub_resource type="ConvexPolygonShape" id=1]
points = PoolVector3Array( 1.96605, -0.340233, -0.0840885, 1.96605, -0.578224, -0.0840885, 3.15858, -0.431904, -0.673678, 3.15858, -0.342957, -0.673678, -3.15762, -0.442082, -1.58551, -1.96701, -0.588166, -1.70858, -1.96701, -0.588166, -0.0957029, -3.15762, -0.442082, -0.684341, 3.16755, -0.342978, -0.688109, 3.16755, -0.430865, -0.688109, 3.16755, -0.430865, -1.58453, 3.16755, -0.342978, -1.58453, 1.96709, -0.330236, -0.095756, 3.15755, -0.332955, -0.684321, 3.15755, -0.332955, -1.58551, 1.96709, -0.330236, -1.70858, 1.95709, -0.340213, -1.70966, 1.95709, -0.579384, -1.70966, 1.95709, -0.579384, -0.0896565, 1.95709, -0.340213, -0.0896565, 3.1576, -0.432011, -1.59556, 1.96704, -0.57809, -1.71863, 1.96704, -0.340236, -1.71863, 3.1576, -0.342955, -1.59556, -3.15858, -0.431904, -0.673678, -1.96605, -0.578224, -0.0840885, -1.96605, -0.340233, -0.0840885, -3.15858, -0.342957, -0.673678, -3.16755, -0.342978, -1.58453, -3.16755, -0.430865, -1.58453, -3.16755, -0.430865, -0.688109, -3.16755, -0.342978, -0.688109, -1.96709, -0.330236, -1.70858, -3.15755, -0.332955, -1.58551, -3.15755, -0.332955, -0.684321, -1.96709, -0.330236, -0.095756, -1.95709, -0.340213, -0.0896565, -1.95709, -0.579384, -0.0896565, -1.95709, -0.579384, -1.70966, -1.95709, -0.340213, -1.70966, -1.96704, -0.340236, -1.71863, -1.96704, -0.57809, -1.71863, -3.1576, -0.432011, -1.59556, -3.1576, -0.342955, -1.59556, 1.96701, -0.588166, -0.0957029, 1.96605, -0.578224, -0.0840885, 1.95709, -0.579384, -0.0896565, 1.96605, -0.340233, -0.0840885, 1.96709, -0.330236, -0.095756, 1.95709, -0.340213, -0.0896565, 1.96701, -0.588166, -1.70858, 1.95709, -0.579384, -1.70966, 1.96704, -0.57809, -1.71863, 1.96709, -0.330236, -1.70858, 1.96704, -0.340236, -1.71863, 1.95709, -0.340213, -1.70966, 3.15762, -0.442082, -0.684341, 3.16755, -0.430865, -0.688109, 3.15858, -0.431904, -0.673678, 3.15755, -0.332955, -0.684321, 3.15858, -0.342957, -0.673678, 3.16755, -0.342978, -0.688109, 3.1576, -0.432011, -1.59556, 3.16755, -0.430865, -1.58453, 3.15762, -0.442082, -1.58551, 3.1576, -0.342955, -1.59556, 3.15755, -0.332955, -1.58551, 3.16755, -0.342978, -1.58453, -1.96701, -0.588166, -0.0957029, -1.95709, -0.579384, -0.0896565, -1.96605, -0.578224, -0.0840885, -1.96605, -0.340233, -0.0840885, -1.95709, -0.340213, -0.0896565, -1.96709, -0.330236, -0.095756, -1.96701, -0.588166, -1.70858, -1.96704, -0.57809, -1.71863, -1.95709, -0.579384, -1.70966, -1.96709, -0.330236, -1.70858, -1.95709, -0.340213, -1.70966, -1.96704, -0.340236, -1.71863, -3.15762, -0.442082, -0.684341, -3.15858, -0.431904, -0.673678, -3.16755, -0.430865, -0.688109, -3.15755, -0.332955, -0.684321, -3.16755, -0.342978, -0.688109, -3.15858, -0.342957, -0.673678, -3.1576, -0.432011, -1.59556, -3.15762, -0.442082, -1.58551, -3.16755, -0.430865, -1.58453, -3.1576, -0.342955, -1.59556, -3.16755, -0.342978, -1.58453, -3.15755, -0.332955, -1.58551, 1.95709, -0.579384, -0.0896565, 1.96605, -0.578224, -0.0840885, 1.95709, -0.340213, -0.0896565, 1.96709, -0.330236, -0.095756, 1.96704, -0.57809, -1.71863, 1.95709, -0.579384, -1.70966, 1.95709, -0.340213, -1.70966, 1.96704, -0.340236, -1.71863, 3.16755, -0.430865, -1.58453, 3.1576, -0.432011, -1.59556, 3.1576, -0.342955, -1.59556, 3.16755, -0.342978, -1.58453, 3.16755, -0.430865, -0.688109, 3.15762, -0.442082, -0.684341, 3.15762, -0.442082, -1.58551, 3.16755, -0.430865, -1.58453, 3.15755, -0.332955, -0.684321, 3.16755, -0.342978, -0.688109, 3.16755, -0.342978, -1.58453, 3.15755, -0.332955, -1.58551, 3.15858, -0.342957, -0.673678, 3.15858, -0.431904, -0.673678, 3.16755, -0.430865, -0.688109, 3.16755, -0.342978, -0.688109, 3.15762, -0.442082, -1.58551, 3.1576, -0.432011, -1.59556, 3.15755, -0.332955, -1.58551, 3.1576, -0.342955, -1.59556, 1.96605, -0.340233, -0.0840885, 1.96709, -0.330236, -0.095756, -1.95709, -0.579384, -0.0896565, -1.96701, -0.588166, -0.0957029, -1.96701, -0.588166, -1.70858, -1.95709, -0.579384, -1.70966, -1.96605, -0.578224, -0.0840885, -1.95709, -0.579384, -0.0896565, -1.95709, -0.340213, -0.0896565, -1.96605, -0.340233, -0.0840885, -1.96709, -0.330236, -0.095756, -1.95709, -0.340213, -0.0896565, -1.95709, -0.340213, -1.70966, -1.96709, -0.330236, -1.70858, -1.95709, -0.340213, -1.70966, -1.95709, -0.579384, -1.70966, -1.96704, -0.57809, -1.71863, -1.96704, -0.340236, -1.71863, -3.1576, -0.342955, -1.59556, -3.1576, -0.432011, -1.59556, -3.16755, -0.430865, -1.58453, -3.16755, -0.342978, -1.58453, -3.16755, -0.430865, -1.58453, -3.15762, -0.442082, -1.58551, -3.15762, -0.442082, -0.684341, -3.16755, -0.430865, -0.688109, -3.15755, -0.332955, -1.58551, -3.16755, -0.342978, -1.58453, -3.16755, -0.342978, -0.688109, -3.15755, -0.332955, -0.684321, -3.16755, -0.430865, -0.688109, -3.15858, -0.431904, -0.673678, -3.15858, -0.342957, -0.673678, -3.16755, -0.342978, -0.688109, -1.96704, -0.57809, -1.71863, -1.96701, -0.588166, -1.70858, -1.96704, -0.340236, -1.71863, -1.96709, -0.330236, -1.70858, -3.15762, -0.442082, -0.684341, -1.96701, -0.588166, -0.0957029, -1.96605, -0.578224, -0.0840885, -3.15858, -0.431904, -0.673678, -3.15755, -0.332955, -0.684321, -3.15858, -0.342957, -0.673678, 3.15762, -0.442082, -0.684341, 1.96701, -0.588166, -0.0957029, 1.96701, -0.588166, -1.70858, 3.15762, -0.442082, -1.58551 )

[node name="gunsModul" instance=ExtResource( 1 )]

[node name="CollisionShape2" type="CollisionShape" parent="." index="3"]
shape = SubResource( 1 )
