[gd_scene load_steps=4 format=2]

[ext_resource path="res://kerno/menuo/scenoj/bottom_block.tscn" type="PackedScene" id=1]
[ext_resource path="res://kerno/menuo/skriptoj/bottom_3.gd" type="Script" id=2]
[ext_resource path="res://kerno/menuo/resursoj/icons/photo_2020-07-30_21-14-44 (3).jpg" type="Texture" id=3]

[node name="bottom_3" instance=ExtResource( 1 )]
script = ExtResource( 2 )

[node name="TextureRect" parent="VBox/body_texture/HBoxContainer/VBox/body_texture" index="2"]
texture = ExtResource( 3 )

[node name="Button" parent="VBox/body_texture/HBoxContainer/VBoxContainer" index="0"]
text = "Объединится с единомышленниками"

[node name="Description" parent="VBox/body_texture/HBoxContainer/VBoxContainer" index="1"]
text = "Информация для разработчиков"
[connection signal="button_up" from="VBox/body_texture/HBoxContainer/VBoxContainer/Button" to="." method="_on_Button_button_up"]
