[gd_scene load_steps=3 format=2]

[ext_resource path="res://kerno/skriptoj/interago.gd" type="Script" id=1]
[ext_resource path="res://kerno/fenestroj/tipo_a1.tscn" type="PackedScene" id=2]

[node name="interago" instance=ExtResource( 2 )]
anchor_left = 1.0
anchor_right = 1.0
margin_left = -1024.0
margin_right = -1024.0
script = ExtResource( 1 )

[node name="VBox" parent="." index="0"]
visible = false
margin_left = 71.2508
margin_top = 57.0006
margin_right = 271.251
margin_bottom = 257.001

[node name="menuo_name" parent="VBox/HBox_top/top_texture2/HBox_buttons" index="0"]
margin_right = 155.0
text = "Центр взаимодействия"

[node name="Button_fix" parent="VBox/HBox_top/top_texture2/HBox_buttons" index="1"]
visible = false

[node name="Button_" parent="VBox/HBox_top/top_texture2/HBox_buttons" index="2"]
visible = false

[node name="Button_full" parent="VBox/HBox_top/top_texture2/HBox_buttons" index="3"]
visible = false

[node name="kosmo" type="Button" parent="VBox" index="1"]
margin_top = 22.0
margin_right = 200.0
margin_bottom = 45.0
text = "Выйти в космос"
__meta__ = {
"_edit_use_anchors_": false
}

[node name="body_texture" parent="VBox" index="2"]
margin_top = 45.0

[node name="Label" type="Label" parent="VBox/body_texture" index="0"]
margin_right = 200.0
margin_bottom = -23.0
custom_colors/font_color_shadow = Color( 0, 0, 0, 1 )
text = "Станция"
__meta__ = {
"_edit_use_anchors_": false
}
[connection signal="pressed" from="VBox/kosmo" to="." method="_on_kosmo_pressed"]
